^D:\C4\GAMECODE\SIMPLECHAR.CPP|D:\C4\VISUALSTUDIO2013\C4\SIMPLECHAR\AICONTROLLER.CPP|D:\C4\VISUALSTUDIO2013\C4\SIMPLECHAR\TRIGGERCONTROLLER.CPP
D:\C4\VISUALSTUDIO2013\C4\SIMPLECHAR\WIN32\DEBUG\TRIGGERCONTROLLER.OBJ
^D:\C4\GAMECODE\SIMPLECHAR.CPP|D:\C4\VISUALSTUDIO2013\C4\SIMPLECHAR\AICONTROLLER.CPP
D:\C4\VISUALSTUDIO2013\C4\SIMPLECHAR\WIN32\DEBUG\SIMPLECHAR.OBJ
^D:\C4\VISUALSTUDIO2013\C4\SIMPLECHAR\AICONTROLLER.CPP|D:\C4\VISUALSTUDIO2013\C4\SIMPLECHAR\TRIGGERCONTROLLER.CPP
D:\C4\VISUALSTUDIO2013\C4\SIMPLECHAR\WIN32\DEBUG\TRIGGERCONTROLLER.OBJ
^D:\C4\GAMECODE\SIMPLECHAR.CPP|D:\C4\VISUALSTUDIO2013\C4\SIMPLECHAR\AICONTROLLER.CPP|D:\C4\VISUALSTUDIO2013\C4\SIMPLECHAR\CASTLECONTROLLER.CPP|D:\C4\VISUALSTUDIO2013\C4\SIMPLECHAR\TRIGGERCONTROLLER.CPP
D:\C4\VISUALSTUDIO2013\C4\SIMPLECHAR\WIN32\DEBUG\SIMPLECHAR.OBJ
D:\C4\VISUALSTUDIO2013\C4\SIMPLECHAR\WIN32\DEBUG\CASTLECONTROLLER.OBJ
D:\C4\VISUALSTUDIO2013\C4\SIMPLECHAR\WIN32\DEBUG\TRIGGERCONTROLLER.OBJ
D:\C4\VISUALSTUDIO2013\C4\SIMPLECHAR\WIN32\DEBUG\AICONTROLLER.OBJ
^D:\C4\VISUALSTUDIO2013\C4\SIMPLECHAR\CASTLECONTROLLER.CPP|D:\C4\VISUALSTUDIO2013\C4\SIMPLECHAR\TRIGGERCONTROLLER.CPP
D:\C4\VISUALSTUDIO2013\C4\SIMPLECHAR\WIN32\DEBUG\TRIGGERCONTROLLER.OBJ
D:\C4\VISUALSTUDIO2013\C4\SIMPLECHAR\WIN32\DEBUG\CASTLECONTROLLER.OBJ
^D:\C4\VISUALSTUDIO2013\C4\SIMPLECHAR\AICONTROLLER.CPP|D:\C4\VISUALSTUDIO2013\C4\SIMPLECHAR\MACHINE.CPP
D:\C4\VISUALSTUDIO2013\C4\SIMPLECHAR\WIN32\DEBUG\MACHINE.OBJ
D:\C4\VISUALSTUDIO2013\C4\SIMPLECHAR\WIN32\DEBUG\AICONTROLLER.OBJ
^D:\C4\VISUALSTUDIO2013\C4\SIMPLECHAR\MACHINE.CPP|D:\C4\VISUALSTUDIO2013\C4\SIMPLECHAR\TRIGGERCONTROLLER.CPP
D:\C4\VISUALSTUDIO2013\C4\SIMPLECHAR\WIN32\DEBUG\MACHINE.OBJ
D:\C4\VISUALSTUDIO2013\C4\SIMPLECHAR\WIN32\DEBUG\TRIGGERCONTROLLER.OBJ
^D:\C4\GAMECODE\SIMPLECHAR.CPP|D:\C4\VISUALSTUDIO2013\C4\SIMPLECHAR\AICONTROLLER.CPP|D:\C4\VISUALSTUDIO2013\C4\SIMPLECHAR\CASTLECONTROLLER.CPP|D:\C4\VISUALSTUDIO2013\C4\SIMPLECHAR\MACHINE.CPP|D:\C4\VISUALSTUDIO2013\C4\SIMPLECHAR\TRIGGERCONTROLLER.CPP
D:\C4\VISUALSTUDIO2013\C4\SIMPLECHAR\WIN32\DEBUG\CASTLECONTROLLER.OBJ
D:\C4\VISUALSTUDIO2013\C4\SIMPLECHAR\WIN32\DEBUG\SIMPLECHAR.OBJ
D:\C4\VISUALSTUDIO2013\C4\SIMPLECHAR\WIN32\DEBUG\TRIGGERCONTROLLER.OBJ
D:\C4\VISUALSTUDIO2013\C4\SIMPLECHAR\WIN32\DEBUG\MACHINE.OBJ
^D:\C4\GAMECODE\SIMPLECHAR.CPP
D:\C4\VISUALSTUDIO2013\C4\SIMPLECHAR\WIN32\DEBUG\SIMPLECHAR.OBJ
^D:\C4\VISUALSTUDIO2013\C4\SIMPLECHAR\CASTLECONTROLLER.CPP
D:\C4\VISUALSTUDIO2013\C4\SIMPLECHAR\WIN32\DEBUG\CASTLECONTROLLER.OBJ
^D:\C4\VISUALSTUDIO2013\C4\SIMPLECHAR\MACHINE.CPP
D:\C4\VISUALSTUDIO2013\C4\SIMPLECHAR\WIN32\DEBUG\MACHINE.OBJ
^D:\C4\VISUALSTUDIO2013\C4\SIMPLECHAR\TRIGGERCONTROLLER.CPP
D:\C4\VISUALSTUDIO2013\C4\SIMPLECHAR\WIN32\DEBUG\TRIGGERCONTROLLER.OBJ
^D:\C4\VISUALSTUDIO2013\C4\SIMPLECHAR\AICONTROLLER.CPP
D:\C4\VISUALSTUDIO2013\C4\SIMPLECHAR\WIN32\DEBUG\VC120.PDB
D:\C4\VISUALSTUDIO2013\C4\SIMPLECHAR\WIN32\DEBUG\AICONTROLLER.OBJ
