^D:\C4\VISUALSTUDIO2013\C4\SIMPLECHAR\WIN32\DEBUG\AICONTROLLER.OBJ|D:\C4\VISUALSTUDIO2013\C4\SIMPLECHAR\WIN32\DEBUG\CASTLECONTROLLER.OBJ|D:\C4\VISUALSTUDIO2013\C4\SIMPLECHAR\WIN32\DEBUG\MACHINE.OBJ|D:\C4\VISUALSTUDIO2013\C4\SIMPLECHAR\WIN32\DEBUG\SIMPLECHAR.OBJ|D:\C4\VISUALSTUDIO2013\C4\SIMPLECHAR\WIN32\DEBUG\TRIGGERCONTROLLER.OBJ
D:\C4\VISUALSTUDIO2013\C4\WIN32\DEBUG\SIMPLECHAR.DLL
D:\C4\VISUALSTUDIO2013\C4\WIN32\DEBUG\SIMPLECHAR.MAP
D:\C4\VISUALSTUDIO2013\C4\WIN32\DEBUG\SIMPLECHAR.PDB
