^D:\C4\VisualStudio2013\C4\SimpleChar\SimpleChar.vcxproj
D:\C4\VisualStudio2013\C4\Win32\Debug\SimpleChar.lib
D:\C4\VisualStudio2013\C4\Win32\Debug\SimpleChar.exp
^SimpleChar
D:\C4\SimpleChar.dll
^D:\C4\VisualStudio2013\C4\SimpleChar\SimpleChar.vcxproj
D:\C4\VisualStudio2013\C4\Win32\Debug\SimpleChar.lib
D:\C4\VisualStudio2013\C4\Win32\Debug\SimpleChar.exp
^SimpleChar
D:\C4\SimpleChar.dll
^D:\C4\VisualStudio2013\C4\SimpleChar\SimpleChar.vcxproj
D:\C4\VisualStudio2013\C4\Win32\Debug\SimpleChar.lib
D:\C4\VisualStudio2013\C4\Win32\Debug\SimpleChar.exp
^SimpleChar
D:\C4\SimpleChar.dll
^D:\C4\VisualStudio2013\C4\SimpleChar\SimpleChar.vcxproj
D:\C4\VisualStudio2013\C4\Win32\Debug\SimpleChar.lib
D:\C4\VisualStudio2013\C4\Win32\Debug\SimpleChar.exp
^SimpleChar
D:\C4\SimpleChar.dll
^D:\C4\VisualStudio2013\C4\SimpleChar\SimpleChar.vcxproj
D:\C4\VisualStudio2013\C4\Win32\Debug\SimpleChar.lib
D:\C4\VisualStudio2013\C4\Win32\Debug\SimpleChar.exp
^SimpleChar
D:\C4\SimpleChar.dll
^D:\C4\VisualStudio2013\C4\SimpleChar\SimpleChar.vcxproj
D:\C4\VisualStudio2013\C4\Win32\Debug\SimpleChar.lib
D:\C4\VisualStudio2013\C4\Win32\Debug\SimpleChar.exp
^SimpleChar
D:\C4\SimpleChar.dll
^D:\C4\VisualStudio2013\C4\SimpleChar\SimpleChar.vcxproj
D:\C4\VisualStudio2013\C4\Win32\Debug\SimpleChar.lib
D:\C4\VisualStudio2013\C4\Win32\Debug\SimpleChar.exp
^SimpleChar
D:\C4\SimpleChar.dll
^D:\C4\VisualStudio2013\C4\SimpleChar\SimpleChar.vcxproj
D:\C4\VisualStudio2013\C4\Win32\Debug\SimpleChar.lib
D:\C4\VisualStudio2013\C4\Win32\Debug\SimpleChar.exp
^SimpleChar
D:\C4\SimpleChar.dll
^D:\C4\VisualStudio2013\C4\SimpleChar\SimpleChar.vcxproj
D:\C4\VisualStudio2013\C4\Win32\Debug\SimpleChar.lib
D:\C4\VisualStudio2013\C4\Win32\Debug\SimpleChar.exp
^SimpleChar
D:\C4\SimpleChar.dll
^D:\C4\VisualStudio2013\C4\SimpleChar\SimpleChar.vcxproj
D:\C4\VisualStudio2013\C4\Win32\Debug\SimpleChar.lib
D:\C4\VisualStudio2013\C4\Win32\Debug\SimpleChar.exp
^SimpleChar
D:\C4\SimpleChar.dll
^D:\C4\VisualStudio2013\C4\SimpleChar\SimpleChar.vcxproj
D:\C4\VisualStudio2013\C4\Win32\Debug\SimpleChar.lib
D:\C4\VisualStudio2013\C4\Win32\Debug\SimpleChar.exp
^SimpleChar
D:\C4\SimpleChar.dll
^D:\C4\VisualStudio2013\C4\SimpleChar\SimpleChar.vcxproj
D:\C4\VisualStudio2013\C4\Win32\Debug\SimpleChar.lib
D:\C4\VisualStudio2013\C4\Win32\Debug\SimpleChar.exp
^SimpleChar
D:\C4\SimpleChar.dll
^D:\C4\VisualStudio2013\C4\SimpleChar\SimpleChar.vcxproj
D:\C4\VisualStudio2013\C4\Win32\Debug\SimpleChar.lib
D:\C4\VisualStudio2013\C4\Win32\Debug\SimpleChar.exp
^SimpleChar
D:\C4\SimpleChar.dll
^D:\C4\VisualStudio2013\C4\SimpleChar\SimpleChar.vcxproj
D:\C4\VisualStudio2013\C4\Win32\Debug\SimpleChar.lib
D:\C4\VisualStudio2013\C4\Win32\Debug\SimpleChar.exp
^SimpleChar
D:\C4\SimpleChar.dll
^D:\C4\VisualStudio2013\C4\SimpleChar\SimpleChar.vcxproj
D:\C4\VisualStudio2013\C4\Win32\Debug\SimpleChar.lib
D:\C4\VisualStudio2013\C4\Win32\Debug\SimpleChar.exp
^SimpleChar
D:\C4\SimpleChar.dll
^D:\C4\VisualStudio2013\C4\SimpleChar\SimpleChar.vcxproj
D:\C4\VisualStudio2013\C4\Win32\Debug\SimpleChar.lib
D:\C4\VisualStudio2013\C4\Win32\Debug\SimpleChar.exp
^SimpleChar
D:\C4\SimpleChar.dll
^D:\C4\VisualStudio2013\C4\SimpleChar\SimpleChar.vcxproj
D:\C4\VisualStudio2013\C4\Win32\Debug\SimpleChar.lib
D:\C4\VisualStudio2013\C4\Win32\Debug\SimpleChar.exp
^SimpleChar
D:\C4\SimpleChar.dll
^D:\C4\VisualStudio2013\C4\SimpleChar\SimpleChar.vcxproj
D:\C4\VisualStudio2013\C4\Win32\Debug\SimpleChar.lib
D:\C4\VisualStudio2013\C4\Win32\Debug\SimpleChar.exp
^SimpleChar
D:\C4\SimpleChar.dll
^D:\C4\VisualStudio2013\C4\SimpleChar\SimpleChar.vcxproj
D:\C4\VisualStudio2013\C4\Win32\Debug\SimpleChar.lib
D:\C4\VisualStudio2013\C4\Win32\Debug\SimpleChar.exp
^SimpleChar
D:\C4\SimpleChar.dll
^D:\C4\VisualStudio2013\C4\SimpleChar\SimpleChar.vcxproj
D:\C4\VisualStudio2013\C4\Win32\Debug\SimpleChar.lib
D:\C4\VisualStudio2013\C4\Win32\Debug\SimpleChar.exp
^SimpleChar
D:\C4\SimpleChar.dll
^D:\C4\VisualStudio2013\C4\SimpleChar\SimpleChar.vcxproj
D:\C4\VisualStudio2013\C4\Win32\Debug\SimpleChar.lib
D:\C4\VisualStudio2013\C4\Win32\Debug\SimpleChar.exp
^SimpleChar
D:\C4\SimpleChar.dll
^D:\C4\VisualStudio2013\C4\SimpleChar\SimpleChar.vcxproj
D:\C4\VisualStudio2013\C4\Win32\Debug\SimpleChar.lib
D:\C4\VisualStudio2013\C4\Win32\Debug\SimpleChar.exp
^SimpleChar
D:\C4\SimpleChar.dll
^D:\C4\VisualStudio2013\C4\SimpleChar\SimpleChar.vcxproj
D:\C4\VisualStudio2013\C4\Win32\Debug\SimpleChar.lib
D:\C4\VisualStudio2013\C4\Win32\Debug\SimpleChar.exp
^SimpleChar
D:\C4\SimpleChar.dll
^D:\C4\VisualStudio2013\C4\SimpleChar\SimpleChar.vcxproj
D:\C4\VisualStudio2013\C4\Win32\Debug\SimpleChar.lib
D:\C4\VisualStudio2013\C4\Win32\Debug\SimpleChar.exp
^SimpleChar
D:\C4\SimpleChar.dll
^D:\C4\VisualStudio2013\C4\SimpleChar\SimpleChar.vcxproj
D:\C4\VisualStudio2013\C4\Win32\Debug\SimpleChar.lib
D:\C4\VisualStudio2013\C4\Win32\Debug\SimpleChar.exp
^SimpleChar
D:\C4\SimpleChar.dll
^D:\C4\VisualStudio2013\C4\SimpleChar\SimpleChar.vcxproj
D:\C4\VisualStudio2013\C4\Win32\Debug\SimpleChar.lib
D:\C4\VisualStudio2013\C4\Win32\Debug\SimpleChar.exp
^SimpleChar
D:\C4\SimpleChar.dll
^D:\C4\VisualStudio2013\C4\SimpleChar\SimpleChar.vcxproj
D:\C4\VisualStudio2013\C4\Win32\Debug\SimpleChar.lib
D:\C4\VisualStudio2013\C4\Win32\Debug\SimpleChar.exp
^SimpleChar
D:\C4\SimpleChar.dll
^D:\C4\VisualStudio2013\C4\SimpleChar\SimpleChar.vcxproj
D:\C4\VisualStudio2013\C4\Win32\Debug\SimpleChar.lib
D:\C4\VisualStudio2013\C4\Win32\Debug\SimpleChar.exp
^SimpleChar
D:\C4\SimpleChar.dll
^D:\C4\VisualStudio2013\C4\SimpleChar\SimpleChar.vcxproj
D:\C4\VisualStudio2013\C4\Win32\Debug\SimpleChar.lib
D:\C4\VisualStudio2013\C4\Win32\Debug\SimpleChar.exp
^SimpleChar
D:\C4\SimpleChar.dll
^D:\C4\VisualStudio2013\C4\SimpleChar\SimpleChar.vcxproj
D:\C4\VisualStudio2013\C4\Win32\Debug\SimpleChar.lib
D:\C4\VisualStudio2013\C4\Win32\Debug\SimpleChar.exp
^SimpleChar
D:\C4\SimpleChar.dll
^D:\C4\VisualStudio2013\C4\SimpleChar\SimpleChar.vcxproj
D:\C4\VisualStudio2013\C4\Win32\Debug\SimpleChar.lib
D:\C4\VisualStudio2013\C4\Win32\Debug\SimpleChar.exp
^SimpleChar
D:\C4\SimpleChar.dll
^D:\C4\VisualStudio2013\C4\SimpleChar\SimpleChar.vcxproj
D:\C4\VisualStudio2013\C4\Win32\Debug\SimpleChar.lib
D:\C4\VisualStudio2013\C4\Win32\Debug\SimpleChar.exp
^SimpleChar
D:\C4\SimpleChar.dll
^D:\C4\VisualStudio2013\C4\SimpleChar\SimpleChar.vcxproj
D:\C4\VisualStudio2013\C4\Win32\Debug\SimpleChar.lib
D:\C4\VisualStudio2013\C4\Win32\Debug\SimpleChar.exp
^SimpleChar
D:\C4\SimpleChar.dll
^D:\C4\VisualStudio2013\C4\SimpleChar\SimpleChar.vcxproj
D:\C4\VisualStudio2013\C4\Win32\Debug\SimpleChar.lib
D:\C4\VisualStudio2013\C4\Win32\Debug\SimpleChar.exp
^SimpleChar
D:\C4\SimpleChar.dll
^D:\C4\VisualStudio2013\C4\SimpleChar\SimpleChar.vcxproj
D:\C4\VisualStudio2013\C4\Win32\Debug\SimpleChar.lib
D:\C4\VisualStudio2013\C4\Win32\Debug\SimpleChar.exp
^SimpleChar
D:\C4\SimpleChar.dll
^D:\C4\VisualStudio2013\C4\SimpleChar\SimpleChar.vcxproj
D:\C4\VisualStudio2013\C4\Win32\Debug\SimpleChar.lib
D:\C4\VisualStudio2013\C4\Win32\Debug\SimpleChar.exp
^SimpleChar
D:\C4\SimpleChar.dll
^D:\C4\VisualStudio2013\C4\SimpleChar\SimpleChar.vcxproj
D:\C4\VisualStudio2013\C4\Win32\Debug\SimpleChar.lib
D:\C4\VisualStudio2013\C4\Win32\Debug\SimpleChar.exp
^SimpleChar
D:\C4\SimpleChar.dll
^D:\C4\VisualStudio2013\C4\SimpleChar\SimpleChar.vcxproj
D:\C4\VisualStudio2013\C4\Win32\Debug\SimpleChar.lib
D:\C4\VisualStudio2013\C4\Win32\Debug\SimpleChar.exp
^SimpleChar
D:\C4\SimpleChar.dll
^D:\C4\VisualStudio2013\C4\SimpleChar\SimpleChar.vcxproj
D:\C4\VisualStudio2013\C4\Win32\Debug\SimpleChar.lib
D:\C4\VisualStudio2013\C4\Win32\Debug\SimpleChar.exp
^SimpleChar
D:\C4\SimpleChar.dll
^D:\C4\VisualStudio2013\C4\SimpleChar\SimpleChar.vcxproj
D:\C4\VisualStudio2013\C4\Win32\Debug\SimpleChar.lib
D:\C4\VisualStudio2013\C4\Win32\Debug\SimpleChar.exp
^SimpleChar
D:\C4\SimpleChar.dll
^D:\C4\VisualStudio2013\C4\SimpleChar\SimpleChar.vcxproj
D:\C4\VisualStudio2013\C4\Win32\Debug\SimpleChar.lib
D:\C4\VisualStudio2013\C4\Win32\Debug\SimpleChar.exp
^SimpleChar
D:\C4\SimpleChar.dll
^D:\C4\VisualStudio2013\C4\SimpleChar\SimpleChar.vcxproj
D:\C4\VisualStudio2013\C4\Win32\Debug\SimpleChar.lib
D:\C4\VisualStudio2013\C4\Win32\Debug\SimpleChar.exp
^SimpleChar
D:\C4\SimpleChar.dll
^D:\C4\VisualStudio2013\C4\SimpleChar\SimpleChar.vcxproj
D:\C4\VisualStudio2013\C4\Win32\Debug\SimpleChar.lib
D:\C4\VisualStudio2013\C4\Win32\Debug\SimpleChar.exp
^SimpleChar
D:\C4\SimpleChar.dll
^D:\C4\VisualStudio2013\C4\SimpleChar\SimpleChar.vcxproj
D:\C4\VisualStudio2013\C4\Win32\Debug\SimpleChar.lib
D:\C4\VisualStudio2013\C4\Win32\Debug\SimpleChar.exp
^SimpleChar
D:\C4\SimpleChar.dll
^D:\C4\VisualStudio2013\C4\SimpleChar\SimpleChar.vcxproj
D:\C4\VisualStudio2013\C4\Win32\Debug\SimpleChar.lib
D:\C4\VisualStudio2013\C4\Win32\Debug\SimpleChar.exp
^SimpleChar
D:\C4\SimpleChar.dll
^D:\C4\VisualStudio2013\C4\SimpleChar\SimpleChar.vcxproj
D:\C4\VisualStudio2013\C4\Win32\Debug\SimpleChar.lib
D:\C4\VisualStudio2013\C4\Win32\Debug\SimpleChar.exp
^SimpleChar
D:\C4\SimpleChar.dll
^D:\C4\VisualStudio2013\C4\SimpleChar\SimpleChar.vcxproj
D:\C4\VisualStudio2013\C4\Win32\Debug\SimpleChar.lib
D:\C4\VisualStudio2013\C4\Win32\Debug\SimpleChar.exp
^SimpleChar
D:\C4\SimpleChar.dll
^D:\C4\VisualStudio2013\C4\SimpleChar\SimpleChar.vcxproj
D:\C4\VisualStudio2013\C4\Win32\Debug\SimpleChar.lib
D:\C4\VisualStudio2013\C4\Win32\Debug\SimpleChar.exp
^SimpleChar
D:\C4\SimpleChar.dll
^D:\C4\VisualStudio2013\C4\SimpleChar\SimpleChar.vcxproj
D:\C4\VisualStudio2013\C4\Win32\Debug\SimpleChar.lib
D:\C4\VisualStudio2013\C4\Win32\Debug\SimpleChar.exp
^SimpleChar
D:\C4\SimpleChar.dll
^D:\C4\VisualStudio2013\C4\SimpleChar\SimpleChar.vcxproj
D:\C4\VisualStudio2013\C4\Win32\Debug\SimpleChar.lib
D:\C4\VisualStudio2013\C4\Win32\Debug\SimpleChar.exp
^SimpleChar
D:\C4\SimpleChar.dll
^D:\C4\VisualStudio2013\C4\SimpleChar\SimpleChar.vcxproj
D:\C4\VisualStudio2013\C4\Win32\Debug\SimpleChar.lib
D:\C4\VisualStudio2013\C4\Win32\Debug\SimpleChar.exp
^SimpleChar
D:\C4\SimpleChar.dll
^D:\C4\VisualStudio2013\C4\SimpleChar\SimpleChar.vcxproj
D:\C4\VisualStudio2013\C4\Win32\Debug\SimpleChar.lib
D:\C4\VisualStudio2013\C4\Win32\Debug\SimpleChar.exp
^SimpleChar
D:\C4\SimpleChar.dll
^D:\C4\VisualStudio2013\C4\SimpleChar\SimpleChar.vcxproj
D:\C4\VisualStudio2013\C4\Win32\Debug\SimpleChar.lib
D:\C4\VisualStudio2013\C4\Win32\Debug\SimpleChar.exp
^SimpleChar
D:\C4\SimpleChar.dll
^D:\C4\VisualStudio2013\C4\SimpleChar\SimpleChar.vcxproj
D:\C4\VisualStudio2013\C4\Win32\Debug\SimpleChar.lib
D:\C4\VisualStudio2013\C4\Win32\Debug\SimpleChar.exp
^SimpleChar
D:\C4\SimpleChar.dll
^D:\C4\VisualStudio2013\C4\SimpleChar\SimpleChar.vcxproj
D:\C4\VisualStudio2013\C4\Win32\Debug\SimpleChar.lib
D:\C4\VisualStudio2013\C4\Win32\Debug\SimpleChar.exp
^SimpleChar
D:\C4\SimpleChar.dll
^D:\C4\VisualStudio2013\C4\SimpleChar\SimpleChar.vcxproj
D:\C4\VisualStudio2013\C4\Win32\Debug\SimpleChar.lib
D:\C4\VisualStudio2013\C4\Win32\Debug\SimpleChar.exp
^SimpleChar
D:\C4\SimpleChar.dll
^D:\C4\VisualStudio2013\C4\SimpleChar\SimpleChar.vcxproj
D:\C4\VisualStudio2013\C4\Win32\Debug\SimpleChar.lib
D:\C4\VisualStudio2013\C4\Win32\Debug\SimpleChar.exp
^SimpleChar
D:\C4\SimpleChar.dll
^D:\C4\VisualStudio2013\C4\SimpleChar\SimpleChar.vcxproj
D:\C4\VisualStudio2013\C4\Win32\Debug\SimpleChar.lib
D:\C4\VisualStudio2013\C4\Win32\Debug\SimpleChar.exp
^SimpleChar
D:\C4\SimpleChar.dll
^D:\C4\VisualStudio2013\C4\SimpleChar\SimpleChar.vcxproj
D:\C4\VisualStudio2013\C4\Win32\Debug\SimpleChar.lib
D:\C4\VisualStudio2013\C4\Win32\Debug\SimpleChar.exp
^SimpleChar
D:\C4\SimpleChar.dll
^D:\C4\VisualStudio2013\C4\SimpleChar\SimpleChar.vcxproj
D:\C4\VisualStudio2013\C4\Win32\Debug\SimpleChar.lib
D:\C4\VisualStudio2013\C4\Win32\Debug\SimpleChar.exp
^SimpleChar
D:\C4\SimpleChar.dll
^D:\C4\VisualStudio2013\C4\SimpleChar\SimpleChar.vcxproj
D:\C4\VisualStudio2013\C4\Win32\Debug\SimpleChar.lib
D:\C4\VisualStudio2013\C4\Win32\Debug\SimpleChar.exp
^SimpleChar
D:\C4\SimpleChar.dll
^D:\C4\VisualStudio2013\C4\SimpleChar\SimpleChar.vcxproj
D:\C4\VisualStudio2013\C4\Win32\Debug\SimpleChar.lib
D:\C4\VisualStudio2013\C4\Win32\Debug\SimpleChar.exp
^SimpleChar
D:\C4\SimpleChar.dll
^D:\C4\VisualStudio2013\C4\SimpleChar\SimpleChar.vcxproj
D:\C4\VisualStudio2013\C4\Win32\Debug\SimpleChar.lib
D:\C4\VisualStudio2013\C4\Win32\Debug\SimpleChar.exp
^SimpleChar
D:\C4\SimpleChar.dll
^D:\C4\VisualStudio2013\C4\SimpleChar\SimpleChar.vcxproj
D:\C4\VisualStudio2013\C4\Win32\Debug\SimpleChar.lib
D:\C4\VisualStudio2013\C4\Win32\Debug\SimpleChar.exp
^SimpleChar
D:\C4\SimpleChar.dll
^D:\C4\VisualStudio2013\C4\SimpleChar\SimpleChar.vcxproj
D:\C4\VisualStudio2013\C4\Win32\Debug\SimpleChar.lib
D:\C4\VisualStudio2013\C4\Win32\Debug\SimpleChar.exp
^SimpleChar
D:\C4\SimpleChar.dll
^D:\C4\VisualStudio2013\C4\SimpleChar\SimpleChar.vcxproj
D:\C4\VisualStudio2013\C4\Win32\Debug\SimpleChar.lib
D:\C4\VisualStudio2013\C4\Win32\Debug\SimpleChar.exp
^SimpleChar
D:\C4\SimpleChar.dll
^D:\C4\VisualStudio2013\C4\SimpleChar\SimpleChar.vcxproj
D:\C4\VisualStudio2013\C4\Win32\Debug\SimpleChar.lib
D:\C4\VisualStudio2013\C4\Win32\Debug\SimpleChar.exp
^SimpleChar
D:\C4\SimpleChar.dll
^D:\C4\VisualStudio2013\C4\SimpleChar\SimpleChar.vcxproj
D:\C4\VisualStudio2013\C4\Win32\Debug\SimpleChar.lib
D:\C4\VisualStudio2013\C4\Win32\Debug\SimpleChar.exp
^SimpleChar
D:\C4\SimpleChar.dll
^D:\C4\VisualStudio2013\C4\SimpleChar\SimpleChar.vcxproj
D:\C4\VisualStudio2013\C4\Win32\Debug\SimpleChar.lib
D:\C4\VisualStudio2013\C4\Win32\Debug\SimpleChar.exp
^SimpleChar
D:\C4\SimpleChar.dll
^D:\C4\VisualStudio2013\C4\SimpleChar\SimpleChar.vcxproj
D:\C4\VisualStudio2013\C4\Win32\Debug\SimpleChar.lib
D:\C4\VisualStudio2013\C4\Win32\Debug\SimpleChar.exp
^SimpleChar
D:\C4\SimpleChar.dll
^D:\C4\VisualStudio2013\C4\SimpleChar\SimpleChar.vcxproj
D:\C4\VisualStudio2013\C4\Win32\Debug\SimpleChar.lib
D:\C4\VisualStudio2013\C4\Win32\Debug\SimpleChar.exp
^SimpleChar
D:\C4\SimpleChar.dll
^D:\C4\VisualStudio2013\C4\SimpleChar\SimpleChar.vcxproj
D:\C4\VisualStudio2013\C4\Win32\Debug\SimpleChar.lib
D:\C4\VisualStudio2013\C4\Win32\Debug\SimpleChar.exp
^SimpleChar
D:\C4\SimpleChar.dll
^D:\C4\VisualStudio2013\C4\SimpleChar\SimpleChar.vcxproj
D:\C4\VisualStudio2013\C4\Win32\Debug\SimpleChar.lib
D:\C4\VisualStudio2013\C4\Win32\Debug\SimpleChar.exp
^SimpleChar
D:\C4\SimpleChar.dll
^D:\C4\VisualStudio2013\C4\SimpleChar\SimpleChar.vcxproj
D:\C4\VisualStudio2013\C4\Win32\Debug\SimpleChar.lib
D:\C4\VisualStudio2013\C4\Win32\Debug\SimpleChar.exp
^SimpleChar
D:\C4\SimpleChar.dll
^D:\C4\VisualStudio2013\C4\SimpleChar\SimpleChar.vcxproj
D:\C4\VisualStudio2013\C4\Win32\Debug\SimpleChar.lib
D:\C4\VisualStudio2013\C4\Win32\Debug\SimpleChar.exp
^SimpleChar
D:\C4\SimpleChar.dll
^D:\C4\VisualStudio2013\C4\SimpleChar\SimpleChar.vcxproj
D:\C4\VisualStudio2013\C4\Win32\Debug\SimpleChar.lib
D:\C4\VisualStudio2013\C4\Win32\Debug\SimpleChar.exp
^SimpleChar
D:\C4\SimpleChar.dll
^D:\C4\VisualStudio2013\C4\SimpleChar\SimpleChar.vcxproj
D:\C4\VisualStudio2013\C4\Win32\Debug\SimpleChar.lib
D:\C4\VisualStudio2013\C4\Win32\Debug\SimpleChar.exp
^SimpleChar
D:\C4\SimpleChar.dll
^D:\C4\VisualStudio2013\C4\SimpleChar\SimpleChar.vcxproj
D:\C4\VisualStudio2013\C4\Win32\Debug\SimpleChar.lib
D:\C4\VisualStudio2013\C4\Win32\Debug\SimpleChar.exp
^SimpleChar
D:\C4\SimpleChar.dll
^D:\C4\VisualStudio2013\C4\SimpleChar\SimpleChar.vcxproj
D:\C4\VisualStudio2013\C4\Win32\Debug\SimpleChar.lib
D:\C4\VisualStudio2013\C4\Win32\Debug\SimpleChar.exp
^SimpleChar
D:\C4\SimpleChar.dll
^D:\C4\VisualStudio2013\C4\SimpleChar\SimpleChar.vcxproj
D:\C4\VisualStudio2013\C4\Win32\Debug\SimpleChar.lib
D:\C4\VisualStudio2013\C4\Win32\Debug\SimpleChar.exp
^SimpleChar
D:\C4\SimpleChar.dll
^D:\C4\VisualStudio2013\C4\SimpleChar\SimpleChar.vcxproj
D:\C4\VisualStudio2013\C4\Win32\Debug\SimpleChar.lib
D:\C4\VisualStudio2013\C4\Win32\Debug\SimpleChar.exp
^SimpleChar
D:\C4\SimpleChar.dll
^D:\C4\VisualStudio2013\C4\SimpleChar\SimpleChar.vcxproj
D:\C4\VisualStudio2013\C4\Win32\Debug\SimpleChar.lib
D:\C4\VisualStudio2013\C4\Win32\Debug\SimpleChar.exp
^SimpleChar
D:\C4\SimpleChar.dll
^D:\C4\VisualStudio2013\C4\SimpleChar\SimpleChar.vcxproj
D:\C4\VisualStudio2013\C4\Win32\Debug\SimpleChar.lib
D:\C4\VisualStudio2013\C4\Win32\Debug\SimpleChar.exp
^SimpleChar
D:\C4\SimpleChar.dll
^D:\C4\VisualStudio2013\C4\SimpleChar\SimpleChar.vcxproj
D:\C4\VisualStudio2013\C4\Win32\Debug\SimpleChar.lib
D:\C4\VisualStudio2013\C4\Win32\Debug\SimpleChar.exp
^SimpleChar
D:\C4\SimpleChar.dll
^D:\C4\VisualStudio2013\C4\SimpleChar\SimpleChar.vcxproj
D:\C4\VisualStudio2013\C4\Win32\Debug\SimpleChar.lib
D:\C4\VisualStudio2013\C4\Win32\Debug\SimpleChar.exp
^SimpleChar
D:\C4\SimpleChar.dll
^D:\C4\VisualStudio2013\C4\SimpleChar\SimpleChar.vcxproj
D:\C4\VisualStudio2013\C4\Win32\Debug\SimpleChar.lib
D:\C4\VisualStudio2013\C4\Win32\Debug\SimpleChar.exp
^SimpleChar
D:\C4\SimpleChar.dll
^D:\C4\VisualStudio2013\C4\SimpleChar\SimpleChar.vcxproj
D:\C4\VisualStudio2013\C4\Win32\Debug\SimpleChar.lib
D:\C4\VisualStudio2013\C4\Win32\Debug\SimpleChar.exp
^SimpleChar
D:\C4\SimpleChar.dll
^D:\C4\VisualStudio2013\C4\SimpleChar\SimpleChar.vcxproj
D:\C4\VisualStudio2013\C4\Win32\Debug\SimpleChar.lib
D:\C4\VisualStudio2013\C4\Win32\Debug\SimpleChar.exp
^SimpleChar
D:\C4\SimpleChar.dll
^D:\C4\VisualStudio2013\C4\SimpleChar\SimpleChar.vcxproj
D:\C4\VisualStudio2013\C4\Win32\Debug\SimpleChar.lib
D:\C4\VisualStudio2013\C4\Win32\Debug\SimpleChar.exp
^SimpleChar
D:\C4\SimpleChar.dll
^D:\C4\VisualStudio2013\C4\SimpleChar\SimpleChar.vcxproj
D:\C4\VisualStudio2013\C4\Win32\Debug\SimpleChar.lib
D:\C4\VisualStudio2013\C4\Win32\Debug\SimpleChar.exp
^SimpleChar
D:\C4\SimpleChar.dll
^D:\C4\VisualStudio2013\C4\SimpleChar\SimpleChar.vcxproj
D:\C4\VisualStudio2013\C4\Win32\Debug\SimpleChar.lib
D:\C4\VisualStudio2013\C4\Win32\Debug\SimpleChar.exp
^SimpleChar
D:\C4\SimpleChar.dll
^D:\C4\VisualStudio2013\C4\SimpleChar\SimpleChar.vcxproj
D:\C4\VisualStudio2013\C4\Win32\Debug\SimpleChar.lib
D:\C4\VisualStudio2013\C4\Win32\Debug\SimpleChar.exp
^SimpleChar
D:\C4\SimpleChar.dll
^D:\C4\VisualStudio2013\C4\SimpleChar\SimpleChar.vcxproj
D:\C4\VisualStudio2013\C4\Win32\Debug\SimpleChar.lib
D:\C4\VisualStudio2013\C4\Win32\Debug\SimpleChar.exp
^SimpleChar
D:\C4\SimpleChar.dll
^D:\C4\VisualStudio2013\C4\SimpleChar\SimpleChar.vcxproj
D:\C4\VisualStudio2013\C4\Win32\Debug\SimpleChar.lib
D:\C4\VisualStudio2013\C4\Win32\Debug\SimpleChar.exp
^SimpleChar
D:\C4\SimpleChar.dll
^D:\C4\VisualStudio2013\C4\SimpleChar\SimpleChar.vcxproj
D:\C4\VisualStudio2013\C4\Win32\Debug\SimpleChar.lib
D:\C4\VisualStudio2013\C4\Win32\Debug\SimpleChar.exp
^SimpleChar
D:\C4\SimpleChar.dll
^D:\C4\VisualStudio2013\C4\SimpleChar\SimpleChar.vcxproj
D:\C4\VisualStudio2013\C4\Win32\Debug\SimpleChar.lib
D:\C4\VisualStudio2013\C4\Win32\Debug\SimpleChar.exp
^SimpleChar
D:\C4\SimpleChar.dll
^D:\C4\VisualStudio2013\C4\SimpleChar\SimpleChar.vcxproj
D:\C4\VisualStudio2013\C4\Win32\Debug\SimpleChar.lib
D:\C4\VisualStudio2013\C4\Win32\Debug\SimpleChar.exp
^SimpleChar
D:\C4\SimpleChar.dll
^D:\C4\VisualStudio2013\C4\SimpleChar\SimpleChar.vcxproj
D:\C4\VisualStudio2013\C4\Win32\Debug\SimpleChar.lib
D:\C4\VisualStudio2013\C4\Win32\Debug\SimpleChar.exp
^SimpleChar
D:\C4\SimpleChar.dll
^D:\C4\VisualStudio2013\C4\SimpleChar\SimpleChar.vcxproj
D:\C4\VisualStudio2013\C4\Win32\Debug\SimpleChar.lib
D:\C4\VisualStudio2013\C4\Win32\Debug\SimpleChar.exp
^SimpleChar
D:\C4\SimpleChar.dll
