^D:\C4\GAMECODE\SIMPLEBALL.CPP
C:\PROGRAM FILES (X86)\MICROSOFT VISUAL STUDIO 12.0\VC\BIN\1036\CLUI.DLL
C:\WINDOWS\GLOBALIZATION\SORTING\SORTDEFAULT.NLS
C:\WINDOWS\SYSTEM32\RSAENH.DLL
C:\WINDOWS\SYSTEM32\TZRES.DLL
D:\C4\GAMECODE\SIMPLEBALL.H
D:\C4\ENGINECODE\C4APPLICATION.H
D:\C4\ENGINECODE\C4MESSAGES.H
D:\C4\ENGINECODE\C4FILES.H
D:\C4\ENGINECODE\C4TYPES.H
D:\C4\ENGINECODE\C4CONSTANTS.H
D:\C4\ENGINECODE\C4MATRIX4D.H
D:\C4\ENGINECODE\C4ANTIVECTOR4D.H
D:\C4\ENGINECODE\C4VECTOR4D.H
D:\C4\ENGINECODE\C4VECTOR3D.H
D:\C4\ENGINECODE\C4VECTOR2D.H
D:\C4\ENGINECODE\C4MATH.H
D:\C4\ENGINECODE\C4MEMORY.H
D:\C4\ENGINECODE\C4BASE.H
D:\C4\ENGINECODE\C4DEFINES.H
D:\C4\ENGINECODE\C4PREFIXWINDOWS.H
D:\C4\ENGINECODE\C4SIMD.H
D:\C4\ENGINECODE\C4MATRIX3D.H
D:\C4\ENGINECODE\C4COLORRGBA.H
D:\C4\ENGINECODE\C4SPATIAL.H
D:\C4\ENGINECODE\C4SHARED.H
D:\C4\ENGINECODE\C4ARRAY.H
D:\C4\ENGINECODE\C4TREE.H
D:\C4\ENGINECODE\C4GRAPH.H
D:\C4\ENGINECODE\C4LIST.H
D:\C4\ENGINECODE\C4MAP.H
D:\C4\ENGINECODE\C4HASH.H
D:\C4\ENGINECODE\C4LINK.H
D:\C4\ENGINECODE\C4RECT.H
D:\C4\ENGINECODE\C4FIXED.H
D:\C4\ENGINECODE\C4STRING.H
D:\C4\ENGINECODE\C4COMPLEX.H
D:\C4\ENGINECODE\C4BIVECTOR4D.H
D:\C4\ENGINECODE\C4QUATERNION.H
D:\C4\ENGINECODE\C4COMPLETABLE.H
D:\C4\ENGINECODE\C4OBSERVABLE.H
D:\C4\ENGINECODE\C4VARIABLES.H
D:\C4\ENGINECODE\C4NETWORK.H
D:\C4\ENGINECODE\C4THREADS.H
D:\C4\ENGINECODE\C4INPUT.H
D:\C4\ENGINECODE\C4DIRECTINPUT.H
D:\C4\ENGINECODE\C4INTERFACE.H
D:\C4\ENGINECODE\C4CAMERAOBJECTS.H
D:\C4\ENGINECODE\C4OBJECTS.H
D:\C4\ENGINECODE\C4CONSTRUCTION.H
D:\C4\ENGINECODE\C4PACKING.H
D:\C4\ENGINECODE\C4CONFIGURABLE.H
D:\C4\ENGINECODE\C4STRINGTABLE.H
D:\C4\ENGINECODE\C4RESOURCES.H
D:\C4\ENGINECODE\C4DISPLAY.H
D:\C4\ENGINECODE\C4OCULUS.H
D:\C4\ENGINECODE\C4ENGINE.H
D:\C4\ENGINECODE\C4COMMANDS.H
D:\C4\ENGINECODE\C4OPENDDL.H
D:\C4\ENGINECODE\C4WINTAB.H
D:\C4\ENGINECODE\C4FONTS.H
D:\C4\ENGINECODE\C4ATTRIBUTES.H
D:\C4\ENGINECODE\C4TEXTURES.H
D:\C4\ENGINECODE\C4COMPRESSION.H
D:\C4\ENGINECODE\C4IMAGE.H
D:\C4\ENGINECODE\C4BOUNDING.H
D:\C4\ENGINECODE\C4RENDER.H
D:\C4\ENGINECODE\C4OPENGL.H
D:\C4\ENGINECODE\C4COMPUTATION.H
D:\C4\ENGINECODE\C4MENUS.H
D:\C4\ENGINECODE\C4WIDGETS.H
D:\C4\ENGINECODE\C4NODE.H
D:\C4\ENGINECODE\C4CELL.H
D:\C4\ENGINECODE\C4PROPERTIES.H
D:\C4\ENGINECODE\C4CONNECTOR.H
D:\C4\ENGINECODE\C4RENDERABLE.H
D:\C4\ENGINECODE\C4VERTEXSHADERS.H
D:\C4\ENGINECODE\C4PROGRAMS.H
D:\C4\ENGINECODE\C4FRAGMENTSHADERS.H
D:\C4\ENGINECODE\C4GEOMETRYSHADERS.H
D:\C4\ENGINECODE\C4MATERIALOBJECTS.H
D:\C4\ENGINECODE\C4MUTATORS.H
D:\C4\ENGINECODE\C4WORLD.H
D:\C4\ENGINECODE\C4SHADOWS.H
D:\C4\ENGINECODE\C4GRAPHICS.H
D:\C4\ENGINECODE\C4LIGHTOBJECTS.H
D:\C4\ENGINECODE\C4IMPOSTORS.H
D:\C4\ENGINECODE\C4ZONES.H
D:\C4\ENGINECODE\C4PORTALS.H
D:\C4\ENGINECODE\C4CAMERAS.H
D:\C4\ENGINECODE\C4REGIONS.H
D:\C4\ENGINECODE\C4GEOMETRIES.H
D:\C4\ENGINECODE\C4GEOMETRYOBJECTS.H
D:\C4\ENGINECODE\C4MESH.H
D:\C4\ENGINECODE\C4SPACES.H
D:\C4\ENGINECODE\C4SPACEOBJECTS.H
D:\C4\ENGINECODE\C4VOLUMES.H
D:\C4\ENGINECODE\C4EFFECTS.H
D:\C4\ENGINECODE\C4RANDOM.H
D:\C4\ENGINECODE\C4PATHS.H
D:\C4\ENGINECODE\C4MARKERS.H
D:\C4\ENGINECODE\C4TIME.H
D:\C4\ENGINECODE\C4LIGHTS.H
D:\C4\ENGINECODE\C4SOURCES.H
D:\C4\ENGINECODE\C4SOUND.H
D:\C4\ENGINECODE\C4XAUDIO.H
D:\C4\ENGINECODE\C4INSTANCES.H
D:\C4\ENGINECODE\C4MODIFIERS.H
D:\C4\ENGINECODE\C4MODELS.H
D:\C4\ENGINECODE\C4CONTROLLER.H
D:\C4\ENGINECODE\C4ANIMATION.H
D:\C4\ENGINECODE\C4PHYSICS.H
D:\C4\ENGINECODE\C4SHAPES.H
D:\C4\ENGINECODE\C4INERTIA.H
D:\C4\ENGINECODE\C4DEFORMABLE.H
D:\C4\ENGINECODE\C4PRIMITIVES.H
D:\C4\ENGINECODE\C4CONTACTS.H
D:\C4\ENGINECODE\C4PARTICLES.H
D:\C4\ENGINECODE\C4EMITTERS.H
D:\C4\ENGINECODE\C4VOXELS.H
