^D:\C4\VISUALSTUDIO2013\C4\RESOURCEPACKER\WIN32\DEBUG\C4RESOURCEPACKER.OBJ
D:\C4\VISUALSTUDIO2013\C4\WIN32\DEBUG\RESOURCEPACKER.DLL
D:\C4\VISUALSTUDIO2013\C4\WIN32\DEBUG\RESOURCEPACKER.MAP
D:\C4\VISUALSTUDIO2013\C4\WIN32\DEBUG\RESOURCEPACKER.PDB
