^D:\C4\VisualStudio2013\C4\ResourcePacker\ResourcePacker.vcxproj
D:\C4\VisualStudio2013\C4\Win32\Debug\ResourcePacker.lib
D:\C4\VisualStudio2013\C4\Win32\Debug\ResourcePacker.exp
^Tool_ResourcePacker
D:\C4\Plugins\Tools\ResourcePacker.dll
^D:\C4\VisualStudio2013\C4\ResourcePacker\ResourcePacker.vcxproj
D:\C4\VisualStudio2013\C4\Win32\Debug\ResourcePacker.lib
D:\C4\VisualStudio2013\C4\Win32\Debug\ResourcePacker.exp
^Tool_ResourcePacker
D:\C4\Plugins\Tools\ResourcePacker.dll
^Tool_ResourcePacker
D:\C4\Plugins\Tools\ResourcePacker.dll
