^D:\C4\VISUALSTUDIO2013\C4\COLLADAIMPORTER\WIN32\DEBUG\C4COLLADAIMPORTER.OBJ
D:\C4\VISUALSTUDIO2013\C4\WIN32\DEBUG\COLLADAIMPORTER.DLL
D:\C4\VISUALSTUDIO2013\C4\WIN32\DEBUG\COLLADAIMPORTER.MAP
D:\C4\VISUALSTUDIO2013\C4\WIN32\DEBUG\COLLADAIMPORTER.PDB
