^D:\C4\VisualStudio2013\C4\Engine\Engine.vcxproj
D:\C4\VisualStudio2013\C4\Win32\Debug\C4Engine.lib
D:\C4\VisualStudio2013\C4\Win32\Debug\C4Engine.exp
^Engine
D:\C4\C4Engine.exe
^D:\C4\VisualStudio2013\C4\Engine\Engine.vcxproj
D:\C4\VisualStudio2013\C4\Win32\Debug\C4Engine.lib
D:\C4\VisualStudio2013\C4\Win32\Debug\C4Engine.exp
^Engine
D:\C4\C4Engine.exe
