^D:\C4\VISUALSTUDIO2013\C4\SOUNDTOOL\WIN32\DEBUG\C4SOUNDIMPORTER.OBJ|D:\C4\VISUALSTUDIO2013\C4\SOUNDTOOL\WIN32\DEBUG\C4SOUNDPLAYER.OBJ|D:\C4\VISUALSTUDIO2013\C4\SOUNDTOOL\WIN32\DEBUG\C4SOUNDTOOL.OBJ
D:\C4\VISUALSTUDIO2013\C4\WIN32\DEBUG\SOUNDTOOL.DLL
D:\C4\VISUALSTUDIO2013\C4\WIN32\DEBUG\SOUNDTOOL.MAP
D:\C4\VISUALSTUDIO2013\C4\WIN32\DEBUG\SOUNDTOOL.PDB
