^D:\C4\VISUALSTUDIO2013\C4\LOGITECH\WIN32\DEBUG\C4LOGITECHPLUGIN.OBJ
D:\C4\VISUALSTUDIO2013\C4\WIN32\DEBUG\LOGITECH.DLL
D:\C4\VISUALSTUDIO2013\C4\WIN32\DEBUG\LOGITECH.MAP
D:\C4\VISUALSTUDIO2013\C4\WIN32\DEBUG\LOGITECH.PDB
