^D:\C4\PLUGINCODE\C4EDITORBASE.CPP
/c /I..\..\..\EngineCode /Zi /nologo /W3 /WX- /Od /Ob1 /Oi /Ot /Oy- /D C4EDITOR /D C4DEBUG /D C4WINDOWS /GF /Gm- /MT /GS- /Gy- /Qpar- /arch:SSE2 /fp:precise /fp:except- /Zc:wchar_t /Zc:forScope /GR- /openmp- /Fo"WIN32\DEBUG\\" /Fd"WIN32\DEBUG\VC120.PDB" /Gd /TP /analyze- D:\C4\PLUGINCODE\C4EDITORBASE.CPP
^D:\C4\PLUGINCODE\C4EDITORCOMMANDS.CPP
/c /I..\..\..\EngineCode /Zi /nologo /W3 /WX- /Od /Ob1 /Oi /Ot /Oy- /D C4EDITOR /D C4DEBUG /D C4WINDOWS /GF /Gm- /MT /GS- /Gy- /Qpar- /arch:SSE2 /fp:precise /fp:except- /Zc:wchar_t /Zc:forScope /GR- /openmp- /Fo"WIN32\DEBUG\\" /Fd"WIN32\DEBUG\VC120.PDB" /Gd /TP /analyze- D:\C4\PLUGINCODE\C4EDITORCOMMANDS.CPP
^D:\C4\PLUGINCODE\C4EDITORCONNECTORS.CPP
/c /I..\..\..\EngineCode /Zi /nologo /W3 /WX- /Od /Ob1 /Oi /Ot /Oy- /D C4EDITOR /D C4DEBUG /D C4WINDOWS /GF /Gm- /MT /GS- /Gy- /Qpar- /arch:SSE2 /fp:precise /fp:except- /Zc:wchar_t /Zc:forScope /GR- /openmp- /Fo"WIN32\DEBUG\\" /Fd"WIN32\DEBUG\VC120.PDB" /Gd /TP /analyze- D:\C4\PLUGINCODE\C4EDITORCONNECTORS.CPP
^D:\C4\PLUGINCODE\C4EDITORGIZMO.CPP
/c /I..\..\..\EngineCode /Zi /nologo /W3 /WX- /Od /Ob1 /Oi /Ot /Oy- /D C4EDITOR /D C4DEBUG /D C4WINDOWS /GF /Gm- /MT /GS- /Gy- /Qpar- /arch:SSE2 /fp:precise /fp:except- /Zc:wchar_t /Zc:forScope /GR- /openmp- /Fo"WIN32\DEBUG\\" /Fd"WIN32\DEBUG\VC120.PDB" /Gd /TP /analyze- D:\C4\PLUGINCODE\C4EDITORGIZMO.CPP
^D:\C4\PLUGINCODE\C4EDITORPAGES.CPP
/c /I..\..\..\EngineCode /Zi /nologo /W3 /WX- /Od /Ob1 /Oi /Ot /Oy- /D C4EDITOR /D C4DEBUG /D C4WINDOWS /GF /Gm- /MT /GS- /Gy- /Qpar- /arch:SSE2 /fp:precise /fp:except- /Zc:wchar_t /Zc:forScope /GR- /openmp- /Fo"WIN32\DEBUG\\" /Fd"WIN32\DEBUG\VC120.PDB" /Gd /TP /analyze- D:\C4\PLUGINCODE\C4EDITORPAGES.CPP
^D:\C4\PLUGINCODE\C4EDITORPLUGINS.CPP
/c /I..\..\..\EngineCode /Zi /nologo /W3 /WX- /Od /Ob1 /Oi /Ot /Oy- /D C4EDITOR /D C4DEBUG /D C4WINDOWS /GF /Gm- /MT /GS- /Gy- /Qpar- /arch:SSE2 /fp:precise /fp:except- /Zc:wchar_t /Zc:forScope /GR- /openmp- /Fo"WIN32\DEBUG\\" /Fd"WIN32\DEBUG\VC120.PDB" /Gd /TP /analyze- D:\C4\PLUGINCODE\C4EDITORPLUGINS.CPP
^D:\C4\PLUGINCODE\C4EDITORSUPPORT.CPP
/c /I..\..\..\EngineCode /Zi /nologo /W3 /WX- /Od /Ob1 /Oi /Ot /Oy- /D C4EDITOR /D C4DEBUG /D C4WINDOWS /GF /Gm- /MT /GS- /Gy- /Qpar- /arch:SSE2 /fp:precise /fp:except- /Zc:wchar_t /Zc:forScope /GR- /openmp- /Fo"WIN32\DEBUG\\" /Fd"WIN32\DEBUG\VC120.PDB" /Gd /TP /analyze- D:\C4\PLUGINCODE\C4EDITORSUPPORT.CPP
^D:\C4\PLUGINCODE\C4EDITORTOOLS.CPP
/c /I..\..\..\EngineCode /Zi /nologo /W3 /WX- /Od /Ob1 /Oi /Ot /Oy- /D C4EDITOR /D C4DEBUG /D C4WINDOWS /GF /Gm- /MT /GS- /Gy- /Qpar- /arch:SSE2 /fp:precise /fp:except- /Zc:wchar_t /Zc:forScope /GR- /openmp- /Fo"WIN32\DEBUG\\" /Fd"WIN32\DEBUG\VC120.PDB" /Gd /TP /analyze- D:\C4\PLUGINCODE\C4EDITORTOOLS.CPP
^D:\C4\PLUGINCODE\C4EDITOROPERATIONS.CPP
/c /I..\..\..\EngineCode /Zi /nologo /W3 /WX- /Od /Ob1 /Oi /Ot /Oy- /D C4EDITOR /D C4DEBUG /D C4WINDOWS /GF /Gm- /MT /GS- /Gy- /Qpar- /arch:SSE2 /fp:precise /fp:except- /Zc:wchar_t /Zc:forScope /GR- /openmp- /Fo"WIN32\DEBUG\\" /Fd"WIN32\DEBUG\VC120.PDB" /Gd /TP /analyze- D:\C4\PLUGINCODE\C4EDITOROPERATIONS.CPP
^D:\C4\PLUGINCODE\C4EDITORVIEWPORTS.CPP
/c /I..\..\..\EngineCode /Zi /nologo /W3 /WX- /Od /Ob1 /Oi /Ot /Oy- /D C4EDITOR /D C4DEBUG /D C4WINDOWS /GF /Gm- /MT /GS- /Gy- /Qpar- /arch:SSE2 /fp:precise /fp:except- /Zc:wchar_t /Zc:forScope /GR- /openmp- /Fo"WIN32\DEBUG\\" /Fd"WIN32\DEBUG\VC120.PDB" /Gd /TP /analyze- D:\C4\PLUGINCODE\C4EDITORVIEWPORTS.CPP
^D:\C4\PLUGINCODE\C4INSTANCEMANIPULATORS.CPP
/c /I..\..\..\EngineCode /Zi /nologo /W3 /WX- /Od /Ob1 /Oi /Ot /Oy- /D C4EDITOR /D C4DEBUG /D C4WINDOWS /GF /Gm- /MT /GS- /Gy- /Qpar- /arch:SSE2 /fp:precise /fp:except- /Zc:wchar_t /Zc:forScope /GR- /openmp- /Fo"WIN32\DEBUG\\" /Fd"WIN32\DEBUG\VC120.PDB" /Gd /TP /analyze- D:\C4\PLUGINCODE\C4INSTANCEMANIPULATORS.CPP
^D:\C4\PLUGINCODE\C4LANDSCAPING.CPP
/c /I..\..\..\EngineCode /Zi /nologo /W3 /WX- /Od /Ob1 /Oi /Ot /Oy- /D C4EDITOR /D C4DEBUG /D C4WINDOWS /GF /Gm- /MT /GS- /Gy- /Qpar- /arch:SSE2 /fp:precise /fp:except- /Zc:wchar_t /Zc:forScope /GR- /openmp- /Fo"WIN32\DEBUG\\" /Fd"WIN32\DEBUG\VC120.PDB" /Gd /TP /analyze- D:\C4\PLUGINCODE\C4LANDSCAPING.CPP
^D:\C4\PLUGINCODE\C4MATERIALCONTAINER.CPP
/c /I..\..\..\EngineCode /Zi /nologo /W3 /WX- /Od /Ob1 /Oi /Ot /Oy- /D C4EDITOR /D C4DEBUG /D C4WINDOWS /GF /Gm- /MT /GS- /Gy- /Qpar- /arch:SSE2 /fp:precise /fp:except- /Zc:wchar_t /Zc:forScope /GR- /openmp- /Fo"WIN32\DEBUG\\" /Fd"WIN32\DEBUG\VC120.PDB" /Gd /TP /analyze- D:\C4\PLUGINCODE\C4MATERIALCONTAINER.CPP
^D:\C4\PLUGINCODE\C4MATERIALMANAGER.CPP
/c /I..\..\..\EngineCode /Zi /nologo /W3 /WX- /Od /Ob1 /Oi /Ot /Oy- /D C4EDITOR /D C4DEBUG /D C4WINDOWS /GF /Gm- /MT /GS- /Gy- /Qpar- /arch:SSE2 /fp:precise /fp:except- /Zc:wchar_t /Zc:forScope /GR- /openmp- /Fo"WIN32\DEBUG\\" /Fd"WIN32\DEBUG\VC120.PDB" /Gd /TP /analyze- D:\C4\PLUGINCODE\C4MATERIALMANAGER.CPP
^D:\C4\PLUGINCODE\C4NODEINFO.CPP
/c /I..\..\..\EngineCode /Zi /nologo /W3 /WX- /Od /Ob1 /Oi /Ot /Oy- /D C4EDITOR /D C4DEBUG /D C4WINDOWS /GF /Gm- /MT /GS- /Gy- /Qpar- /arch:SSE2 /fp:precise /fp:except- /Zc:wchar_t /Zc:forScope /GR- /openmp- /Fo"WIN32\DEBUG\\" /Fd"WIN32\DEBUG\VC120.PDB" /Gd /TP /analyze- D:\C4\PLUGINCODE\C4NODEINFO.CPP
^D:\C4\PLUGINCODE\C4PANELEDITOR.CPP
/c /I..\..\..\EngineCode /Zi /nologo /W3 /WX- /Od /Ob1 /Oi /Ot /Oy- /D C4EDITOR /D C4DEBUG /D C4WINDOWS /GF /Gm- /MT /GS- /Gy- /Qpar- /arch:SSE2 /fp:precise /fp:except- /Zc:wchar_t /Zc:forScope /GR- /openmp- /Fo"WIN32\DEBUG\\" /Fd"WIN32\DEBUG\VC120.PDB" /Gd /TP /analyze- D:\C4\PLUGINCODE\C4PANELEDITOR.CPP
^D:\C4\PLUGINCODE\C4SCRIPTEDITOR.CPP
/c /I..\..\..\EngineCode /Zi /nologo /W3 /WX- /Od /Ob1 /Oi /Ot /Oy- /D C4EDITOR /D C4DEBUG /D C4WINDOWS /GF /Gm- /MT /GS- /Gy- /Qpar- /arch:SSE2 /fp:precise /fp:except- /Zc:wchar_t /Zc:forScope /GR- /openmp- /Fo"WIN32\DEBUG\\" /Fd"WIN32\DEBUG\VC120.PDB" /Gd /TP /analyze- D:\C4\PLUGINCODE\C4SCRIPTEDITOR.CPP
^D:\C4\PLUGINCODE\C4SHADEREDITOR.CPP
/c /I..\..\..\EngineCode /Zi /nologo /W3 /WX- /Od /Ob1 /Oi /Ot /Oy- /D C4EDITOR /D C4DEBUG /D C4WINDOWS /GF /Gm- /MT /GS- /Gy- /Qpar- /arch:SSE2 /fp:precise /fp:except- /Zc:wchar_t /Zc:forScope /GR- /openmp- /Fo"WIN32\DEBUG\\" /Fd"WIN32\DEBUG\VC120.PDB" /Gd /TP /analyze- D:\C4\PLUGINCODE\C4SHADEREDITOR.CPP
^D:\C4\PLUGINCODE\C4TERRAINBUILDERS.CPP
/c /I..\..\..\EngineCode /Zi /nologo /W3 /WX- /Od /Ob1 /Oi /Ot /Oy- /D C4EDITOR /D C4DEBUG /D C4WINDOWS /GF /Gm- /MT /GS- /Gy- /Qpar- /arch:SSE2 /fp:precise /fp:except- /Zc:wchar_t /Zc:forScope /GR- /openmp- /Fo"WIN32\DEBUG\\" /Fd"WIN32\DEBUG\VC120.PDB" /Gd /TP /analyze- D:\C4\PLUGINCODE\C4TERRAINBUILDERS.CPP
^D:\C4\PLUGINCODE\C4TERRAINTOOLS.CPP
/c /I..\..\..\EngineCode /Zi /nologo /W3 /WX- /Od /Ob1 /Oi /Ot /Oy- /D C4EDITOR /D C4DEBUG /D C4WINDOWS /GF /Gm- /MT /GS- /Gy- /Qpar- /arch:SSE2 /fp:precise /fp:except- /Zc:wchar_t /Zc:forScope /GR- /openmp- /Fo"WIN32\DEBUG\\" /Fd"WIN32\DEBUG\VC120.PDB" /Gd /TP /analyze- D:\C4\PLUGINCODE\C4TERRAINTOOLS.CPP
^D:\C4\PLUGINCODE\C4WATERTOOLS.CPP
/c /I..\..\..\EngineCode /Zi /nologo /W3 /WX- /Od /Ob1 /Oi /Ot /Oy- /D C4EDITOR /D C4DEBUG /D C4WINDOWS /GF /Gm- /MT /GS- /Gy- /Qpar- /arch:SSE2 /fp:precise /fp:except- /Zc:wchar_t /Zc:forScope /GR- /openmp- /Fo"WIN32\DEBUG\\" /Fd"WIN32\DEBUG\VC120.PDB" /Gd /TP /analyze- D:\C4\PLUGINCODE\C4WATERTOOLS.CPP
^D:\C4\PLUGINCODE\C4WORLDEDITOR.CPP
/c /I..\..\..\EngineCode /Zi /nologo /W3 /WX- /Od /Ob1 /Oi /Ot /Oy- /D C4EDITOR /D C4DEBUG /D C4WINDOWS /GF /Gm- /MT /GS- /Gy- /Qpar- /arch:SSE2 /fp:precise /fp:except- /Zc:wchar_t /Zc:forScope /GR- /openmp- /Fo"WIN32\DEBUG\\" /Fd"WIN32\DEBUG\VC120.PDB" /Gd /TP /analyze- D:\C4\PLUGINCODE\C4WORLDEDITOR.CPP
^D:\C4\PLUGINCODE\C4CAMERAMANIPULATORS.CPP
/c /I..\..\..\EngineCode /Zi /nologo /W3 /WX- /Od /Ob1 /Oi /Ot /Oy- /D C4EDITOR /D C4DEBUG /D C4WINDOWS /GF /Gm- /MT /GS- /Gy- /Qpar- /arch:SSE2 /fp:precise /fp:except- /Zc:wchar_t /Zc:forScope /GR- /openmp- /Fo"WIN32\DEBUG\\" /Fd"WIN32\DEBUG\VC120.PDB" /Gd /TP /analyze- D:\C4\PLUGINCODE\C4CAMERAMANIPULATORS.CPP
^D:\C4\PLUGINCODE\C4EDITORMANIPULATORS.CPP
/c /I..\..\..\EngineCode /Zi /nologo /W3 /WX- /Od /Ob1 /Oi /Ot /Oy- /D C4EDITOR /D C4DEBUG /D C4WINDOWS /GF /Gm- /MT /GS- /Gy- /Qpar- /arch:SSE2 /fp:precise /fp:except- /Zc:wchar_t /Zc:forScope /GR- /openmp- /Fo"WIN32\DEBUG\\" /Fd"WIN32\DEBUG\VC120.PDB" /Gd /TP /analyze- D:\C4\PLUGINCODE\C4EDITORMANIPULATORS.CPP
^D:\C4\PLUGINCODE\C4EFFECTMANIPULATORS.CPP
/c /I..\..\..\EngineCode /Zi /nologo /W3 /WX- /Od /Ob1 /Oi /Ot /Oy- /D C4EDITOR /D C4DEBUG /D C4WINDOWS /GF /Gm- /MT /GS- /Gy- /Qpar- /arch:SSE2 /fp:precise /fp:except- /Zc:wchar_t /Zc:forScope /GR- /openmp- /Fo"WIN32\DEBUG\\" /Fd"WIN32\DEBUG\VC120.PDB" /Gd /TP /analyze- D:\C4\PLUGINCODE\C4EFFECTMANIPULATORS.CPP
^D:\C4\PLUGINCODE\C4EMITTERMANIPULATORS.CPP
/c /I..\..\..\EngineCode /Zi /nologo /W3 /WX- /Od /Ob1 /Oi /Ot /Oy- /D C4EDITOR /D C4DEBUG /D C4WINDOWS /GF /Gm- /MT /GS- /Gy- /Qpar- /arch:SSE2 /fp:precise /fp:except- /Zc:wchar_t /Zc:forScope /GR- /openmp- /Fo"WIN32\DEBUG\\" /Fd"WIN32\DEBUG\VC120.PDB" /Gd /TP /analyze- D:\C4\PLUGINCODE\C4EMITTERMANIPULATORS.CPP
^D:\C4\PLUGINCODE\C4GEOMETRYMANIPULATORS.CPP
/c /I..\..\..\EngineCode /Zi /nologo /W3 /WX- /Od /Ob1 /Oi /Ot /Oy- /D C4EDITOR /D C4DEBUG /D C4WINDOWS /GF /Gm- /MT /GS- /Gy- /Qpar- /arch:SSE2 /fp:precise /fp:except- /Zc:wchar_t /Zc:forScope /GR- /openmp- /Fo"WIN32\DEBUG\\" /Fd"WIN32\DEBUG\VC120.PDB" /Gd /TP /analyze- D:\C4\PLUGINCODE\C4GEOMETRYMANIPULATORS.CPP
^D:\C4\PLUGINCODE\C4LIGHTMANIPULATORS.CPP
/c /I..\..\..\EngineCode /Zi /nologo /W3 /WX- /Od /Ob1 /Oi /Ot /Oy- /D C4EDITOR /D C4DEBUG /D C4WINDOWS /GF /Gm- /MT /GS- /Gy- /Qpar- /arch:SSE2 /fp:precise /fp:except- /Zc:wchar_t /Zc:forScope /GR- /openmp- /Fo"WIN32\DEBUG\\" /Fd"WIN32\DEBUG\VC120.PDB" /Gd /TP /analyze- D:\C4\PLUGINCODE\C4LIGHTMANIPULATORS.CPP
^D:\C4\PLUGINCODE\C4MARKERMANIPULATORS.CPP
/c /I..\..\..\EngineCode /Zi /nologo /W3 /WX- /Od /Ob1 /Oi /Ot /Oy- /D C4EDITOR /D C4DEBUG /D C4WINDOWS /GF /Gm- /MT /GS- /Gy- /Qpar- /arch:SSE2 /fp:precise /fp:except- /Zc:wchar_t /Zc:forScope /GR- /openmp- /Fo"WIN32\DEBUG\\" /Fd"WIN32\DEBUG\VC120.PDB" /Gd /TP /analyze- D:\C4\PLUGINCODE\C4MARKERMANIPULATORS.CPP
^D:\C4\PLUGINCODE\C4MODELMANIPULATORS.CPP
/c /I..\..\..\EngineCode /Zi /nologo /W3 /WX- /Od /Ob1 /Oi /Ot /Oy- /D C4EDITOR /D C4DEBUG /D C4WINDOWS /GF /Gm- /MT /GS- /Gy- /Qpar- /arch:SSE2 /fp:precise /fp:except- /Zc:wchar_t /Zc:forScope /GR- /openmp- /Fo"WIN32\DEBUG\\" /Fd"WIN32\DEBUG\VC120.PDB" /Gd /TP /analyze- D:\C4\PLUGINCODE\C4MODELMANIPULATORS.CPP
^D:\C4\PLUGINCODE\C4PHYSICSMANIPULATORS.CPP
/c /I..\..\..\EngineCode /Zi /nologo /W3 /WX- /Od /Ob1 /Oi /Ot /Oy- /D C4EDITOR /D C4DEBUG /D C4WINDOWS /GF /Gm- /MT /GS- /Gy- /Qpar- /arch:SSE2 /fp:precise /fp:except- /Zc:wchar_t /Zc:forScope /GR- /openmp- /Fo"WIN32\DEBUG\\" /Fd"WIN32\DEBUG\VC120.PDB" /Gd /TP /analyze- D:\C4\PLUGINCODE\C4PHYSICSMANIPULATORS.CPP
^D:\C4\PLUGINCODE\C4PORTALMANIPULATORS.CPP
/c /I..\..\..\EngineCode /Zi /nologo /W3 /WX- /Od /Ob1 /Oi /Ot /Oy- /D C4EDITOR /D C4DEBUG /D C4WINDOWS /GF /Gm- /MT /GS- /Gy- /Qpar- /arch:SSE2 /fp:precise /fp:except- /Zc:wchar_t /Zc:forScope /GR- /openmp- /Fo"WIN32\DEBUG\\" /Fd"WIN32\DEBUG\VC120.PDB" /Gd /TP /analyze- D:\C4\PLUGINCODE\C4PORTALMANIPULATORS.CPP
^D:\C4\PLUGINCODE\C4SOURCEMANIPULATORS.CPP
/c /I..\..\..\EngineCode /Zi /nologo /W3 /WX- /Od /Ob1 /Oi /Ot /Oy- /D C4EDITOR /D C4DEBUG /D C4WINDOWS /GF /Gm- /MT /GS- /Gy- /Qpar- /arch:SSE2 /fp:precise /fp:except- /Zc:wchar_t /Zc:forScope /GR- /openmp- /Fo"WIN32\DEBUG\\" /Fd"WIN32\DEBUG\VC120.PDB" /Gd /TP /analyze- D:\C4\PLUGINCODE\C4SOURCEMANIPULATORS.CPP
^D:\C4\PLUGINCODE\C4SPACEMANIPULATORS.CPP
/c /I..\..\..\EngineCode /Zi /nologo /W3 /WX- /Od /Ob1 /Oi /Ot /Oy- /D C4EDITOR /D C4DEBUG /D C4WINDOWS /GF /Gm- /MT /GS- /Gy- /Qpar- /arch:SSE2 /fp:precise /fp:except- /Zc:wchar_t /Zc:forScope /GR- /openmp- /Fo"WIN32\DEBUG\\" /Fd"WIN32\DEBUG\VC120.PDB" /Gd /TP /analyze- D:\C4\PLUGINCODE\C4SPACEMANIPULATORS.CPP
^D:\C4\PLUGINCODE\C4TRIGGERMANIPULATORS.CPP
/c /I..\..\..\EngineCode /Zi /nologo /W3 /WX- /Od /Ob1 /Oi /Ot /Oy- /D C4EDITOR /D C4DEBUG /D C4WINDOWS /GF /Gm- /MT /GS- /Gy- /Qpar- /arch:SSE2 /fp:precise /fp:except- /Zc:wchar_t /Zc:forScope /GR- /openmp- /Fo"WIN32\DEBUG\\" /Fd"WIN32\DEBUG\VC120.PDB" /Gd /TP /analyze- D:\C4\PLUGINCODE\C4TRIGGERMANIPULATORS.CPP
^D:\C4\PLUGINCODE\C4VOLUMEMANIPULATORS.CPP
/c /I..\..\..\EngineCode /Zi /nologo /W3 /WX- /Od /Ob1 /Oi /Ot /Oy- /D C4EDITOR /D C4DEBUG /D C4WINDOWS /GF /Gm- /MT /GS- /Gy- /Qpar- /arch:SSE2 /fp:precise /fp:except- /Zc:wchar_t /Zc:forScope /GR- /openmp- /Fo"WIN32\DEBUG\\" /Fd"WIN32\DEBUG\VC120.PDB" /Gd /TP /analyze- D:\C4\PLUGINCODE\C4VOLUMEMANIPULATORS.CPP
^D:\C4\PLUGINCODE\C4ZONEMANIPULATORS.CPP
/c /I..\..\..\EngineCode /Zi /nologo /W3 /WX- /Od /Ob1 /Oi /Ot /Oy- /D C4EDITOR /D C4DEBUG /D C4WINDOWS /GF /Gm- /MT /GS- /Gy- /Qpar- /arch:SSE2 /fp:precise /fp:except- /Zc:wchar_t /Zc:forScope /GR- /openmp- /Fo"WIN32\DEBUG\\" /Fd"WIN32\DEBUG\VC120.PDB" /Gd /TP /analyze- D:\C4\PLUGINCODE\C4ZONEMANIPULATORS.CPP
^D:\C4\PLUGINCODE\C4MODELVIEWER.CPP
/c /I..\..\..\EngineCode /Zi /nologo /W3 /WX- /Od /Ob1 /Oi /Ot /Oy- /D C4EDITOR /D C4DEBUG /D C4WINDOWS /GF /Gm- /MT /GS- /Gy- /Qpar- /arch:SSE2 /fp:precise /fp:except- /Zc:wchar_t /Zc:forScope /GR- /openmp- /Fo"WIN32\DEBUG\\" /Fd"WIN32\DEBUG\VC120.PDB" /Gd /TP /analyze- D:\C4\PLUGINCODE\C4MODELVIEWER.CPP
