^D:\C4\VisualStudio2013\C4\WorldEditor\WorldEditor.vcxproj
D:\C4\VisualStudio2013\C4\Win32\Debug\WorldEditor.lib
D:\C4\VisualStudio2013\C4\Win32\Debug\WorldEditor.exp
^Tool_WorldEditor
D:\C4\Plugins\Tools\WorldEditor.dll
^D:\C4\VisualStudio2013\C4\WorldEditor\WorldEditor.vcxproj
D:\C4\VisualStudio2013\C4\Win32\Debug\WorldEditor.lib
D:\C4\VisualStudio2013\C4\Win32\Debug\WorldEditor.exp
^Tool_WorldEditor
D:\C4\Plugins\Tools\WorldEditor.dll
^Tool_WorldEditor
D:\C4\Plugins\Tools\WorldEditor.dll
