c:\c4\visualstudio2013\c4\engine\win32\debug\c4commands.obj
c:\c4\visualstudio2013\c4\engine\win32\debug\c4modifiers.obj
c:\c4\visualstudio2013\c4\engine\win32\debug\c4vector2d.obj
c:\c4\visualstudio2013\c4\engine\win32\debug\c4vector3d.obj
c:\c4\visualstudio2013\c4\engine\win32\debug\c4graph.obj
c:\c4\visualstudio2013\c4\engine\win32\debug\c4map.obj
c:\c4\visualstudio2013\c4\engine\win32\debug\c4application.obj
c:\c4\visualstudio2013\c4\engine\win32\debug\c4time.obj
c:\c4\visualstudio2013\c4\engine\win32\debug\c4cameraobjects.obj
c:\c4\visualstudio2013\c4\engine\win32\debug\c4textures.obj
c:\c4\visualstudio2013\c4\engine\win32\debug\c4cameras.obj
c:\c4\visualstudio2013\c4\engine\win32\debug\c4skybox.obj
c:\c4\visualstudio2013\c4\engine\win32\debug\c4emitters.obj
c:\c4\visualstudio2013\c4\engine\win32\debug\c4expressions.obj
c:\c4\visualstudio2013\c4\engine\win32\debug\c4filepicker.obj
c:\c4\visualstudio2013\c4\engine\win32\debug\c4contacts.obj
c:\c4\visualstudio2013\c4\engine\win32\debug\c4terrain.obj
c:\c4\visualstudio2013\c4\engine\win32\debug\c4compression.obj
c:\c4\visualstudio2013\c4\engine\win32\debug\c4geometryshaders.obj
c:\c4\visualstudio2013\c4\engine\win32\debug\c4memory.obj
c:\c4\visualstudio2013\c4\engine\win32\debug\c4matrix3d.obj
c:\c4\visualstudio2013\c4\engine\win32\debug\c4menus.obj
c:\c4\visualstudio2013\c4\engine\win32\debug\c4quads.obj
c:\c4\visualstudio2013\c4\engine\win32\debug\c4quaternion.obj
c:\c4\visualstudio2013\c4\engine\win32\debug\c4shafts.obj
c:\c4\visualstudio2013\c4\engine\win32\debug\c4messages.obj
c:\c4\visualstudio2013\c4\engine\win32\debug\c4types.obj
c:\c4\visualstudio2013\c4\engine\win32\debug\c4bounding.obj
c:\c4\visualstudio2013\c4\engine\win32\debug\c4materialobjects.obj
c:\c4\visualstudio2013\c4\engine\win32\debug\c4spaceobjects.obj
c:\c4\visualstudio2013\c4\engine\win32\debug\c4regions.obj
c:\c4\visualstudio2013\c4\engine\win32\debug\c4panels.obj
c:\c4\visualstudio2013\c4\engine\win32\debug\c4configurable.obj
c:\c4\visualstudio2013\c4\engine\win32\debug\c4dialog.obj
c:\c4\visualstudio2013\c4\engine\win32\debug\c4toolwindows.obj
c:\c4\visualstudio2013\c4\engine\win32\debug\c4volumes.obj
c:\c4\visualstudio2013\c4\engine\win32\debug\c4geometryobjects.obj
c:\c4\visualstudio2013\c4\engine\win32\debug\c4computation.obj
c:\c4\visualstudio2013\c4\engine\win32\debug\c4horizon.obj
c:\c4\visualstudio2013\c4\engine\win32\debug\c4movement.obj
c:\c4\visualstudio2013\c4\engine\win32\debug\c4formats.obj
c:\c4\visualstudio2013\c4\engine\win32\debug\c4display.obj
c:\c4\visualstudio2013\c4\engine\win32\debug\c4math.obj
c:\c4\visualstudio2013\c4\engine\win32\debug\c4network.obj
c:\c4\visualstudio2013\c4\engine\win32\debug\c4threads.obj
c:\c4\visualstudio2013\c4\engine\win32\debug\c4attributes.obj
c:\c4\visualstudio2013\c4\engine\win32\debug\c4renderable.obj
c:\c4\visualstudio2013\c4\engine\win32\debug\c4lights.obj
c:\c4\visualstudio2013\c4\engine\win32\debug\c4spaces.obj
c:\c4\visualstudio2013\c4\engine\win32\debug\c4controller.obj
c:\c4\visualstudio2013\c4\engine\win32\debug\c4plugins.obj
c:\c4\visualstudio2013\c4\engine\win32\debug\c4forces.obj
c:\c4\visualstudio2013\c4\engine\win32\debug\c4primitives.obj
c:\c4\visualstudio2013\c4\engine\win32\debug\c4blockers.obj
c:\c4\visualstudio2013\c4\engine\win32\debug\c4hull.obj
c:\c4\visualstudio2013\c4\engine\win32\debug\c4instances.obj
c:\c4\visualstudio2013\c4\engine\win32\debug\c4programs.obj
c:\c4\visualstudio2013\c4\engine\win32\debug\c4random.obj
c:\c4\visualstudio2013\c4\engine\win32\debug\c4variables.obj
c:\c4\visualstudio2013\c4\engine\win32\debug\c4vector4d.obj
c:\c4\visualstudio2013\c4\engine\win32\debug\c4hash.obj
c:\c4\visualstudio2013\c4\engine\win32\debug\c4tree.obj
c:\c4\visualstudio2013\c4\engine\win32\debug\c4audiocapture.obj
c:\c4\visualstudio2013\c4\engine\win32\debug\c4input.obj
c:\c4\visualstudio2013\c4\engine\win32\debug\c4packing.obj
c:\c4\visualstudio2013\c4\engine\win32\debug\c4water.obj
c:\c4\visualstudio2013\c4\engine\win32\debug\c4models.obj
c:\c4\visualstudio2013\c4\engine\win32\debug\c4triggers.obj
c:\c4\visualstudio2013\c4\engine\win32\debug\c4scripts.obj
c:\c4\visualstudio2013\c4\engine\win32\debug\c4widgets.obj
c:\c4\visualstudio2013\c4\engine\win32\debug\c4mesh.obj
c:\c4\visualstudio2013\c4\engine\win32\debug\c4topology.obj
c:\c4\visualstudio2013\c4\engine\win32\debug\c4adjusters.obj
c:\c4\visualstudio2013\c4\engine\win32\debug\c4openddl.obj
c:\c4\visualstudio2013\c4\engine\win32\debug\c4markings.obj
c:\c4\visualstudio2013\c4\engine\win32\debug\c4movies.obj
c:\c4\visualstudio2013\c4\engine\win32\debug\c4files.obj
c:\c4\visualstudio2013\c4\engine\win32\debug\c4main.obj
c:\c4\visualstudio2013\c4\engine\win32\debug\c4sound.obj
c:\c4\visualstudio2013\c4\engine\win32\debug\c4graphics.obj
c:\c4\visualstudio2013\c4\engine\win32\debug\c4portals.obj
c:\c4\visualstudio2013\c4\engine\win32\debug\c4world.obj
c:\c4\visualstudio2013\c4\engine\win32\debug\c4configuration.obj
c:\c4\visualstudio2013\c4\engine\win32\debug\c4character.obj
c:\c4\visualstudio2013\c4\engine\win32\debug\c4inertia.obj
c:\c4\visualstudio2013\c4\engine\win32\debug\c4shapes.obj
c:\c4\visualstudio2013\c4\engine\win32\debug\c4configdata.obj
c:\c4\visualstudio2013\c4\engine\win32\debug\c4logo.obj
c:\c4\visualstudio2013\c4\engine\win32\debug\c4paint.obj
c:\c4\visualstudio2013\c4\engine\win32\debug\c4list.obj
c:\c4\visualstudio2013\c4\engine\win32\debug\c4string.obj
c:\c4\visualstudio2013\c4\engine\win32\debug\c4engine.obj
c:\c4\visualstudio2013\c4\engine\win32\debug\c4opengl.obj
c:\c4\visualstudio2013\c4\engine\win32\debug\c4vertexshaders.obj
c:\c4\visualstudio2013\c4\engine\win32\debug\c4manipulator.obj
c:\c4\visualstudio2013\c4\engine\win32\debug\c4paths.obj
c:\c4\visualstudio2013\c4\engine\win32\debug\c4properties.obj
c:\c4\visualstudio2013\c4\engine\win32\debug\c4effects.obj
c:\c4\visualstudio2013\c4\engine\win32\debug\c4colorpicker.obj
c:\c4\visualstudio2013\c4\engine\win32\debug\c4interface.obj
c:\c4\visualstudio2013\c4\engine\win32\debug\c4physics.obj
c:\c4\visualstudio2013\c4\engine\win32\debug\c4cell.obj
c:\c4\visualstudio2013\c4\engine\win32\debug\c4oculus.obj
c:\c4\visualstudio2013\c4\engine\win32\debug\c4impostors.obj
c:\c4\visualstudio2013\c4\engine\win32\debug\c4processes.obj
c:\c4\visualstudio2013\c4\engine\win32\debug\c4image.obj
c:\c4\visualstudio2013\c4\engine\win32\debug\c4stringtable.obj
c:\c4\visualstudio2013\c4\engine\win32\debug\c4voxels.obj
c:\c4\visualstudio2013\c4\engine\win32\debug\c4lightobjects.obj
c:\c4\visualstudio2013\c4\engine\win32\debug\c4animation.obj
c:\c4\visualstudio2013\c4\engine\win32\debug\c4node.obj
c:\c4\visualstudio2013\c4\engine\win32\debug\c4zones.obj
c:\c4\visualstudio2013\c4\engine\win32\debug\c4values.obj
c:\c4\visualstudio2013\c4\engine\win32\debug\c4fonts.obj
c:\c4\visualstudio2013\c4\engine\win32\debug\c4viewports.obj
c:\c4\visualstudio2013\c4\engine\win32\debug\c4objects.obj
c:\c4\visualstudio2013\c4\engine\win32\debug\c4geometries.obj
c:\c4\visualstudio2013\c4\engine\win32\debug\c4base.obj
c:\c4\visualstudio2013\c4\engine\win32\debug\c4connector.obj
c:\c4\visualstudio2013\c4\engine\win32\debug\c4colorrgba.obj
c:\c4\visualstudio2013\c4\engine\win32\debug\c4constants.obj
c:\c4\visualstudio2013\c4\engine\win32\debug\c4matrix4d.obj
c:\c4\visualstudio2013\c4\engine\win32\debug\c4methods.obj
c:\c4\visualstudio2013\c4\engine\win32\debug\c4deformable.obj
c:\c4\visualstudio2013\c4\engine\win32\debug\c4resources.obj
c:\c4\visualstudio2013\c4\engine\win32\debug\c4wintab.obj
c:\c4\visualstudio2013\c4\engine\win32\debug\c4fragmentshaders.obj
c:\c4\visualstudio2013\c4\engine\win32\debug\c4render.obj
c:\c4\visualstudio2013\c4\engine\win32\debug\c4shaders.obj
c:\c4\visualstudio2013\c4\engine\win32\debug\c4markers.obj
c:\c4\visualstudio2013\c4\engine\win32\debug\c4sources.obj
c:\c4\visualstudio2013\c4\engine\win32\debug\c4particles.obj
c:\c4\visualstudio2013\c4\engine\win32\debug\c4mutators.obj
c:\c4\visualstudio2013\c4\engine\win32\debug\c4fields.obj
c:\c4\visualstudio2013\c4\engine\win32\debug\c4shadows.obj
c:\c4\visualstudio2013\c4\engine\win32\debug\vc120.pdb
c:\c4\visualstudio2013\c4\win32\debug\c4engine.lib
c:\c4\visualstudio2013\c4\win32\debug\c4engine.exp
c:\c4\c4engine.exe
c:\c4\visualstudio2013\c4\win32\debug\c4engine.exe
c:\c4\visualstudio2013\c4\win32\debug\link.map
c:\c4\visualstudio2013\c4\win32\debug\c4engine.pdb
c:\c4\visualstudio2013\c4\engine\win32\debug\c4reswindows.res
d:\c4\visualstudio2013\c4\engine\win32\debug\c4adjusters.obj
d:\c4\visualstudio2013\c4\engine\win32\debug\c4animation.obj
d:\c4\visualstudio2013\c4\engine\win32\debug\c4application.obj
d:\c4\visualstudio2013\c4\engine\win32\debug\c4attributes.obj
d:\c4\visualstudio2013\c4\engine\win32\debug\c4audiocapture.obj
d:\c4\visualstudio2013\c4\engine\win32\debug\c4base.obj
d:\c4\visualstudio2013\c4\engine\win32\debug\c4blockers.obj
d:\c4\visualstudio2013\c4\engine\win32\debug\c4bounding.obj
d:\c4\visualstudio2013\c4\engine\win32\debug\c4cameraobjects.obj
d:\c4\visualstudio2013\c4\engine\win32\debug\c4cameras.obj
d:\c4\visualstudio2013\c4\engine\win32\debug\c4cell.obj
d:\c4\visualstudio2013\c4\engine\win32\debug\c4character.obj
d:\c4\visualstudio2013\c4\engine\win32\debug\c4colorpicker.obj
d:\c4\visualstudio2013\c4\engine\win32\debug\c4colorrgba.obj
d:\c4\visualstudio2013\c4\engine\win32\debug\c4commands.obj
d:\c4\visualstudio2013\c4\engine\win32\debug\c4compression.obj
d:\c4\visualstudio2013\c4\engine\win32\debug\c4computation.obj
d:\c4\visualstudio2013\c4\engine\win32\debug\c4configdata.obj
d:\c4\visualstudio2013\c4\engine\win32\debug\c4configurable.obj
d:\c4\visualstudio2013\c4\engine\win32\debug\c4configuration.obj
d:\c4\visualstudio2013\c4\engine\win32\debug\c4connector.obj
d:\c4\visualstudio2013\c4\engine\win32\debug\c4constants.obj
d:\c4\visualstudio2013\c4\engine\win32\debug\c4contacts.obj
d:\c4\visualstudio2013\c4\engine\win32\debug\c4controller.obj
d:\c4\visualstudio2013\c4\engine\win32\debug\c4deformable.obj
d:\c4\visualstudio2013\c4\engine\win32\debug\c4dialog.obj
d:\c4\visualstudio2013\c4\engine\win32\debug\c4display.obj
d:\c4\visualstudio2013\c4\engine\win32\debug\c4effects.obj
d:\c4\visualstudio2013\c4\engine\win32\debug\c4emitters.obj
d:\c4\visualstudio2013\c4\engine\win32\debug\c4engine.obj
d:\c4\visualstudio2013\c4\engine\win32\debug\c4expressions.obj
d:\c4\visualstudio2013\c4\engine\win32\debug\c4fields.obj
d:\c4\visualstudio2013\c4\engine\win32\debug\c4filepicker.obj
d:\c4\visualstudio2013\c4\engine\win32\debug\c4files.obj
d:\c4\visualstudio2013\c4\engine\win32\debug\c4fonts.obj
d:\c4\visualstudio2013\c4\engine\win32\debug\c4forces.obj
d:\c4\visualstudio2013\c4\engine\win32\debug\c4formats.obj
d:\c4\visualstudio2013\c4\engine\win32\debug\c4fragmentshaders.obj
d:\c4\visualstudio2013\c4\engine\win32\debug\c4geometries.obj
d:\c4\visualstudio2013\c4\engine\win32\debug\c4geometryobjects.obj
d:\c4\visualstudio2013\c4\engine\win32\debug\c4geometryshaders.obj
d:\c4\visualstudio2013\c4\engine\win32\debug\c4graph.obj
d:\c4\visualstudio2013\c4\engine\win32\debug\c4graphics.obj
d:\c4\visualstudio2013\c4\engine\win32\debug\c4hash.obj
d:\c4\visualstudio2013\c4\engine\win32\debug\c4horizon.obj
d:\c4\visualstudio2013\c4\engine\win32\debug\c4hull.obj
d:\c4\visualstudio2013\c4\engine\win32\debug\c4image.obj
d:\c4\visualstudio2013\c4\engine\win32\debug\c4impostors.obj
d:\c4\visualstudio2013\c4\engine\win32\debug\c4inertia.obj
d:\c4\visualstudio2013\c4\engine\win32\debug\c4input.obj
d:\c4\visualstudio2013\c4\engine\win32\debug\c4instances.obj
d:\c4\visualstudio2013\c4\engine\win32\debug\c4interface.obj
d:\c4\visualstudio2013\c4\engine\win32\debug\c4lightobjects.obj
d:\c4\visualstudio2013\c4\engine\win32\debug\c4lights.obj
d:\c4\visualstudio2013\c4\engine\win32\debug\c4list.obj
d:\c4\visualstudio2013\c4\engine\win32\debug\c4logo.obj
d:\c4\visualstudio2013\c4\engine\win32\debug\c4main.obj
d:\c4\visualstudio2013\c4\engine\win32\debug\c4manipulator.obj
d:\c4\visualstudio2013\c4\engine\win32\debug\c4map.obj
d:\c4\visualstudio2013\c4\engine\win32\debug\c4markers.obj
d:\c4\visualstudio2013\c4\engine\win32\debug\c4markings.obj
d:\c4\visualstudio2013\c4\engine\win32\debug\c4materialobjects.obj
d:\c4\visualstudio2013\c4\engine\win32\debug\c4math.obj
d:\c4\visualstudio2013\c4\engine\win32\debug\c4matrix3d.obj
d:\c4\visualstudio2013\c4\engine\win32\debug\c4matrix4d.obj
d:\c4\visualstudio2013\c4\engine\win32\debug\c4memory.obj
d:\c4\visualstudio2013\c4\engine\win32\debug\c4menus.obj
d:\c4\visualstudio2013\c4\engine\win32\debug\c4mesh.obj
d:\c4\visualstudio2013\c4\engine\win32\debug\c4messages.obj
d:\c4\visualstudio2013\c4\engine\win32\debug\c4methods.obj
d:\c4\visualstudio2013\c4\engine\win32\debug\c4models.obj
d:\c4\visualstudio2013\c4\engine\win32\debug\c4modifiers.obj
d:\c4\visualstudio2013\c4\engine\win32\debug\c4movement.obj
d:\c4\visualstudio2013\c4\engine\win32\debug\c4movies.obj
d:\c4\visualstudio2013\c4\engine\win32\debug\c4mutators.obj
d:\c4\visualstudio2013\c4\engine\win32\debug\c4network.obj
d:\c4\visualstudio2013\c4\engine\win32\debug\c4node.obj
d:\c4\visualstudio2013\c4\engine\win32\debug\c4objects.obj
d:\c4\visualstudio2013\c4\engine\win32\debug\c4oculus.obj
d:\c4\visualstudio2013\c4\engine\win32\debug\c4openddl.obj
d:\c4\visualstudio2013\c4\engine\win32\debug\c4opengl.obj
d:\c4\visualstudio2013\c4\engine\win32\debug\c4packing.obj
d:\c4\visualstudio2013\c4\engine\win32\debug\c4paint.obj
d:\c4\visualstudio2013\c4\engine\win32\debug\c4panels.obj
d:\c4\visualstudio2013\c4\engine\win32\debug\c4particles.obj
d:\c4\visualstudio2013\c4\engine\win32\debug\c4paths.obj
d:\c4\visualstudio2013\c4\engine\win32\debug\c4physics.obj
d:\c4\visualstudio2013\c4\engine\win32\debug\c4plugins.obj
d:\c4\visualstudio2013\c4\engine\win32\debug\c4portals.obj
d:\c4\visualstudio2013\c4\engine\win32\debug\c4primitives.obj
d:\c4\visualstudio2013\c4\engine\win32\debug\c4processes.obj
d:\c4\visualstudio2013\c4\engine\win32\debug\c4programs.obj
d:\c4\visualstudio2013\c4\engine\win32\debug\c4properties.obj
d:\c4\visualstudio2013\c4\engine\win32\debug\c4quads.obj
d:\c4\visualstudio2013\c4\engine\win32\debug\c4quaternion.obj
d:\c4\visualstudio2013\c4\engine\win32\debug\c4random.obj
d:\c4\visualstudio2013\c4\engine\win32\debug\c4regions.obj
d:\c4\visualstudio2013\c4\engine\win32\debug\c4render.obj
d:\c4\visualstudio2013\c4\engine\win32\debug\c4renderable.obj
d:\c4\visualstudio2013\c4\engine\win32\debug\c4resources.obj
d:\c4\visualstudio2013\c4\engine\win32\debug\c4scripts.obj
d:\c4\visualstudio2013\c4\engine\win32\debug\c4shaders.obj
d:\c4\visualstudio2013\c4\engine\win32\debug\c4shadows.obj
d:\c4\visualstudio2013\c4\engine\win32\debug\c4shafts.obj
d:\c4\visualstudio2013\c4\engine\win32\debug\c4shapes.obj
d:\c4\visualstudio2013\c4\engine\win32\debug\c4skybox.obj
d:\c4\visualstudio2013\c4\engine\win32\debug\c4sound.obj
d:\c4\visualstudio2013\c4\engine\win32\debug\c4sources.obj
d:\c4\visualstudio2013\c4\engine\win32\debug\c4spaceobjects.obj
d:\c4\visualstudio2013\c4\engine\win32\debug\c4spaces.obj
d:\c4\visualstudio2013\c4\engine\win32\debug\c4string.obj
d:\c4\visualstudio2013\c4\engine\win32\debug\c4stringtable.obj
d:\c4\visualstudio2013\c4\engine\win32\debug\c4terrain.obj
d:\c4\visualstudio2013\c4\engine\win32\debug\c4textures.obj
d:\c4\visualstudio2013\c4\engine\win32\debug\c4threads.obj
d:\c4\visualstudio2013\c4\engine\win32\debug\c4time.obj
d:\c4\visualstudio2013\c4\engine\win32\debug\c4toolwindows.obj
d:\c4\visualstudio2013\c4\engine\win32\debug\c4topology.obj
d:\c4\visualstudio2013\c4\engine\win32\debug\c4tree.obj
d:\c4\visualstudio2013\c4\engine\win32\debug\c4triggers.obj
d:\c4\visualstudio2013\c4\engine\win32\debug\c4types.obj
d:\c4\visualstudio2013\c4\engine\win32\debug\c4values.obj
d:\c4\visualstudio2013\c4\engine\win32\debug\c4variables.obj
d:\c4\visualstudio2013\c4\engine\win32\debug\c4vector2d.obj
d:\c4\visualstudio2013\c4\engine\win32\debug\c4vector3d.obj
d:\c4\visualstudio2013\c4\engine\win32\debug\c4vector4d.obj
d:\c4\visualstudio2013\c4\engine\win32\debug\c4vertexshaders.obj
d:\c4\visualstudio2013\c4\engine\win32\debug\c4viewports.obj
d:\c4\visualstudio2013\c4\engine\win32\debug\c4volumes.obj
d:\c4\visualstudio2013\c4\engine\win32\debug\c4voxels.obj
d:\c4\visualstudio2013\c4\engine\win32\debug\c4water.obj
d:\c4\visualstudio2013\c4\engine\win32\debug\c4widgets.obj
d:\c4\visualstudio2013\c4\engine\win32\debug\c4wintab.obj
d:\c4\visualstudio2013\c4\engine\win32\debug\c4world.obj
d:\c4\visualstudio2013\c4\engine\win32\debug\c4zones.obj
d:\c4\visualstudio2013\c4\engine\win32\debug\c4reswindows.res
d:\c4\visualstudio2013\c4\engine\win32\debug\vc120.pdb
d:\c4\visualstudio2013\c4\win32\debug\c4engine.pdb
d:\c4\visualstudio2013\c4\win32\debug\c4engine.exe
d:\c4\visualstudio2013\c4\engine\win32\debug\engine.tlog\cl.command.1.tlog
d:\c4\visualstudio2013\c4\engine\win32\debug\engine.tlog\cl.read.1.tlog
d:\c4\visualstudio2013\c4\engine\win32\debug\engine.tlog\cl.write.1.tlog
d:\c4\visualstudio2013\c4\engine\win32\debug\engine.tlog\engine.write.1u.tlog
d:\c4\visualstudio2013\c4\engine\win32\debug\engine.tlog\link.command.1.tlog
d:\c4\visualstudio2013\c4\engine\win32\debug\engine.tlog\link.read.1.tlog
d:\c4\visualstudio2013\c4\engine\win32\debug\engine.tlog\link.write.1.tlog
d:\c4\visualstudio2013\c4\engine\win32\debug\engine.tlog\rc.command.1.tlog
d:\c4\visualstudio2013\c4\engine\win32\debug\engine.tlog\rc.read.1.tlog
d:\c4\visualstudio2013\c4\engine\win32\debug\engine.tlog\rc.write.1.tlog
