^D:\C4\PLUGINCODE\C4TERRAINPALETTE.CPP|D:\C4\PLUGINCODE\C4TEXTUREGENERATOR.CPP|D:\C4\PLUGINCODE\C4TEXTUREIMPORTER.CPP|D:\C4\PLUGINCODE\C4TEXTURETOOL.CPP|D:\C4\PLUGINCODE\C4TEXTUREVIEWER.CPP
D:\C4\VISUALSTUDIO2013\C4\TEXTURETOOL\WIN32\DEBUG\C4TERRAINPALETTE.OBJ
D:\C4\VISUALSTUDIO2013\C4\TEXTURETOOL\WIN32\DEBUG\C4TEXTUREGENERATOR.OBJ
D:\C4\VISUALSTUDIO2013\C4\TEXTURETOOL\WIN32\DEBUG\C4TEXTUREIMPORTER.OBJ
D:\C4\VISUALSTUDIO2013\C4\TEXTURETOOL\WIN32\DEBUG\C4TEXTURETOOL.OBJ
D:\C4\VISUALSTUDIO2013\C4\TEXTURETOOL\WIN32\DEBUG\C4TEXTUREVIEWER.OBJ
^D:\C4\PLUGINCODE\C4TERRAINPALETTE.CPP
D:\C4\VISUALSTUDIO2013\C4\TEXTURETOOL\WIN32\DEBUG\VC120.PDB
^D:\C4\PLUGINCODE\C4TEXTUREGENERATOR.CPP
D:\C4\VISUALSTUDIO2013\C4\TEXTURETOOL\WIN32\DEBUG\VC120.PDB
^D:\C4\PLUGINCODE\C4TEXTUREIMPORTER.CPP
D:\C4\VISUALSTUDIO2013\C4\TEXTURETOOL\WIN32\DEBUG\VC120.PDB
^D:\C4\PLUGINCODE\C4TEXTURETOOL.CPP
D:\C4\VISUALSTUDIO2013\C4\TEXTURETOOL\WIN32\DEBUG\VC120.PDB
^D:\C4\PLUGINCODE\C4TEXTUREVIEWER.CPP
D:\C4\VISUALSTUDIO2013\C4\TEXTURETOOL\WIN32\DEBUG\VC120.PDB
