^D:\C4\VISUALSTUDIO2013\C4\STRINGIMPORTER\WIN32\DEBUG\C4STRINGIMPORTER.OBJ
D:\C4\VISUALSTUDIO2013\C4\WIN32\DEBUG\STRINGIMPORTER.DLL
D:\C4\VISUALSTUDIO2013\C4\WIN32\DEBUG\STRINGIMPORTER.MAP
D:\C4\VISUALSTUDIO2013\C4\WIN32\DEBUG\STRINGIMPORTER.PDB
