^D:\C4\GAMECODE\MGAXE.CPP
/c /I..\..\..\EngineCode /I..\..\..\PluginCode /Zi /nologo /W3 /WX- /Od /Ob1 /Oi /Ot /Oy- /D C4DEBUG /D C4WINDOWS /GF /Gm- /MT /GS- /Gy- /Qpar- /arch:SSE2 /fp:precise /fp:except- /Zc:wchar_t /Zc:forScope /GR- /openmp- /Fo"WIN32\DEBUG\\" /Fd"WIN32\DEBUG\VC120.PDB" /Gd /TP /analyze- D:\C4\GAMECODE\MGAXE.CPP
^D:\C4\GAMECODE\MGBASE.CPP
/c /I..\..\..\EngineCode /I..\..\..\PluginCode /Zi /nologo /W3 /WX- /Od /Ob1 /Oi /Ot /Oy- /D C4DEBUG /D C4WINDOWS /GF /Gm- /MT /GS- /Gy- /Qpar- /arch:SSE2 /fp:precise /fp:except- /Zc:wchar_t /Zc:forScope /GR- /openmp- /Fo"WIN32\DEBUG\\" /Fd"WIN32\DEBUG\VC120.PDB" /Gd /TP /analyze- D:\C4\GAMECODE\MGBASE.CPP
^D:\C4\GAMECODE\MGBAT.CPP
/c /I..\..\..\EngineCode /I..\..\..\PluginCode /Zi /nologo /W3 /WX- /Od /Ob1 /Oi /Ot /Oy- /D C4DEBUG /D C4WINDOWS /GF /Gm- /MT /GS- /Gy- /Qpar- /arch:SSE2 /fp:precise /fp:except- /Zc:wchar_t /Zc:forScope /GR- /openmp- /Fo"WIN32\DEBUG\\" /Fd"WIN32\DEBUG\VC120.PDB" /Gd /TP /analyze- D:\C4\GAMECODE\MGBAT.CPP
^D:\C4\GAMECODE\MGBEERCANNON.CPP
/c /I..\..\..\EngineCode /I..\..\..\PluginCode /Zi /nologo /W3 /WX- /Od /Ob1 /Oi /Ot /Oy- /D C4DEBUG /D C4WINDOWS /GF /Gm- /MT /GS- /Gy- /Qpar- /arch:SSE2 /fp:precise /fp:except- /Zc:wchar_t /Zc:forScope /GR- /openmp- /Fo"WIN32\DEBUG\\" /Fd"WIN32\DEBUG\VC120.PDB" /Gd /TP /analyze- D:\C4\GAMECODE\MGBEERCANNON.CPP
^D:\C4\GAMECODE\MGCAMERAS.CPP
/c /I..\..\..\EngineCode /I..\..\..\PluginCode /Zi /nologo /W3 /WX- /Od /Ob1 /Oi /Ot /Oy- /D C4DEBUG /D C4WINDOWS /GF /Gm- /MT /GS- /Gy- /Qpar- /arch:SSE2 /fp:precise /fp:except- /Zc:wchar_t /Zc:forScope /GR- /openmp- /Fo"WIN32\DEBUG\\" /Fd"WIN32\DEBUG\VC120.PDB" /Gd /TP /analyze- D:\C4\GAMECODE\MGCAMERAS.CPP
^D:\C4\GAMECODE\MGCATFLINGER.CPP
/c /I..\..\..\EngineCode /I..\..\..\PluginCode /Zi /nologo /W3 /WX- /Od /Ob1 /Oi /Ot /Oy- /D C4DEBUG /D C4WINDOWS /GF /Gm- /MT /GS- /Gy- /Qpar- /arch:SSE2 /fp:precise /fp:except- /Zc:wchar_t /Zc:forScope /GR- /openmp- /Fo"WIN32\DEBUG\\" /Fd"WIN32\DEBUG\VC120.PDB" /Gd /TP /analyze- D:\C4\GAMECODE\MGCATFLINGER.CPP
^D:\C4\GAMECODE\MGCHARACTER.CPP
/c /I..\..\..\EngineCode /I..\..\..\PluginCode /Zi /nologo /W3 /WX- /Od /Ob1 /Oi /Ot /Oy- /D C4DEBUG /D C4WINDOWS /GF /Gm- /MT /GS- /Gy- /Qpar- /arch:SSE2 /fp:precise /fp:except- /Zc:wchar_t /Zc:forScope /GR- /openmp- /Fo"WIN32\DEBUG\\" /Fd"WIN32\DEBUG\VC120.PDB" /Gd /TP /analyze- D:\C4\GAMECODE\MGCHARACTER.CPP
^D:\C4\GAMECODE\MGCHICKEN.CPP
/c /I..\..\..\EngineCode /I..\..\..\PluginCode /Zi /nologo /W3 /WX- /Od /Ob1 /Oi /Ot /Oy- /D C4DEBUG /D C4WINDOWS /GF /Gm- /MT /GS- /Gy- /Qpar- /arch:SSE2 /fp:precise /fp:except- /Zc:wchar_t /Zc:forScope /GR- /openmp- /Fo"WIN32\DEBUG\\" /Fd"WIN32\DEBUG\VC120.PDB" /Gd /TP /analyze- D:\C4\GAMECODE\MGCHICKEN.CPP
^D:\C4\GAMECODE\MGCHICKENBLASTER.CPP
/c /I..\..\..\EngineCode /I..\..\..\PluginCode /Zi /nologo /W3 /WX- /Od /Ob1 /Oi /Ot /Oy- /D C4DEBUG /D C4WINDOWS /GF /Gm- /MT /GS- /Gy- /Qpar- /arch:SSE2 /fp:precise /fp:except- /Zc:wchar_t /Zc:forScope /GR- /openmp- /Fo"WIN32\DEBUG\\" /Fd"WIN32\DEBUG\VC120.PDB" /Gd /TP /analyze- D:\C4\GAMECODE\MGCHICKENBLASTER.CPP
^D:\C4\GAMECODE\MGCONTROLLERS.CPP
/c /I..\..\..\EngineCode /I..\..\..\PluginCode /Zi /nologo /W3 /WX- /Od /Ob1 /Oi /Ot /Oy- /D C4DEBUG /D C4WINDOWS /GF /Gm- /MT /GS- /Gy- /Qpar- /arch:SSE2 /fp:precise /fp:except- /Zc:wchar_t /Zc:forScope /GR- /openmp- /Fo"WIN32\DEBUG\\" /Fd"WIN32\DEBUG\VC120.PDB" /Gd /TP /analyze- D:\C4\GAMECODE\MGCONTROLLERS.CPP
^D:\C4\GAMECODE\MGCROSSBOW.CPP
/c /I..\..\..\EngineCode /I..\..\..\PluginCode /Zi /nologo /W3 /WX- /Od /Ob1 /Oi /Ot /Oy- /D C4DEBUG /D C4WINDOWS /GF /Gm- /MT /GS- /Gy- /Qpar- /arch:SSE2 /fp:precise /fp:except- /Zc:wchar_t /Zc:forScope /GR- /openmp- /Fo"WIN32\DEBUG\\" /Fd"WIN32\DEBUG\VC120.PDB" /Gd /TP /analyze- D:\C4\GAMECODE\MGCROSSBOW.CPP
^D:\C4\GAMECODE\MGFISH.CPP
/c /I..\..\..\EngineCode /I..\..\..\PluginCode /Zi /nologo /W3 /WX- /Od /Ob1 /Oi /Ot /Oy- /D C4DEBUG /D C4WINDOWS /GF /Gm- /MT /GS- /Gy- /Qpar- /arch:SSE2 /fp:precise /fp:except- /Zc:wchar_t /Zc:forScope /GR- /openmp- /Fo"WIN32\DEBUG\\" /Fd"WIN32\DEBUG\VC120.PDB" /Gd /TP /analyze- D:\C4\GAMECODE\MGFISH.CPP
^D:\C4\GAMECODE\MGGRIMREAPER.CPP
/c /I..\..\..\EngineCode /I..\..\..\PluginCode /Zi /nologo /W3 /WX- /Od /Ob1 /Oi /Ot /Oy- /D C4DEBUG /D C4WINDOWS /GF /Gm- /MT /GS- /Gy- /Qpar- /arch:SSE2 /fp:precise /fp:except- /Zc:wchar_t /Zc:forScope /GR- /openmp- /Fo"WIN32\DEBUG\\" /Fd"WIN32\DEBUG\VC120.PDB" /Gd /TP /analyze- D:\C4\GAMECODE\MGGRIMREAPER.CPP
^D:\C4\GAMECODE\MGGUSGRAVES.CPP
/c /I..\..\..\EngineCode /I..\..\..\PluginCode /Zi /nologo /W3 /WX- /Od /Ob1 /Oi /Ot /Oy- /D C4DEBUG /D C4WINDOWS /GF /Gm- /MT /GS- /Gy- /Qpar- /arch:SSE2 /fp:precise /fp:except- /Zc:wchar_t /Zc:forScope /GR- /openmp- /Fo"WIN32\DEBUG\\" /Fd"WIN32\DEBUG\VC120.PDB" /Gd /TP /analyze- D:\C4\GAMECODE\MGGUSGRAVES.CPP
^D:\C4\GAMECODE\MGHAUNTEDARM.CPP
/c /I..\..\..\EngineCode /I..\..\..\PluginCode /Zi /nologo /W3 /WX- /Od /Ob1 /Oi /Ot /Oy- /D C4DEBUG /D C4WINDOWS /GF /Gm- /MT /GS- /Gy- /Qpar- /arch:SSE2 /fp:precise /fp:except- /Zc:wchar_t /Zc:forScope /GR- /openmp- /Fo"WIN32\DEBUG\\" /Fd"WIN32\DEBUG\VC120.PDB" /Gd /TP /analyze- D:\C4\GAMECODE\MGHAUNTEDARM.CPP
^D:\C4\GAMECODE\MGHORNETGUN.CPP
/c /I..\..\..\EngineCode /I..\..\..\PluginCode /Zi /nologo /W3 /WX- /Od /Ob1 /Oi /Ot /Oy- /D C4DEBUG /D C4WINDOWS /GF /Gm- /MT /GS- /Gy- /Qpar- /arch:SSE2 /fp:precise /fp:except- /Zc:wchar_t /Zc:forScope /GR- /openmp- /Fo"WIN32\DEBUG\\" /Fd"WIN32\DEBUG\VC120.PDB" /Gd /TP /analyze- D:\C4\GAMECODE\MGHORNETGUN.CPP
^D:\C4\GAMECODE\MGINPUT.CPP
/c /I..\..\..\EngineCode /I..\..\..\PluginCode /Zi /nologo /W3 /WX- /Od /Ob1 /Oi /Ot /Oy- /D C4DEBUG /D C4WINDOWS /GF /Gm- /MT /GS- /Gy- /Qpar- /arch:SSE2 /fp:precise /fp:except- /Zc:wchar_t /Zc:forScope /GR- /openmp- /Fo"WIN32\DEBUG\\" /Fd"WIN32\DEBUG\VC120.PDB" /Gd /TP /analyze- D:\C4\GAMECODE\MGINPUT.CPP
^D:\C4\GAMECODE\MGMAGICBROOM.CPP
/c /I..\..\..\EngineCode /I..\..\..\PluginCode /Zi /nologo /W3 /WX- /Od /Ob1 /Oi /Ot /Oy- /D C4DEBUG /D C4WINDOWS /GF /Gm- /MT /GS- /Gy- /Qpar- /arch:SSE2 /fp:precise /fp:except- /Zc:wchar_t /Zc:forScope /GR- /openmp- /Fo"WIN32\DEBUG\\" /Fd"WIN32\DEBUG\VC120.PDB" /Gd /TP /analyze- D:\C4\GAMECODE\MGMAGICBROOM.CPP
^D:\C4\GAMECODE\MGMATERIALS.CPP
/c /I..\..\..\EngineCode /I..\..\..\PluginCode /Zi /nologo /W3 /WX- /Od /Ob1 /Oi /Ot /Oy- /D C4DEBUG /D C4WINDOWS /GF /Gm- /MT /GS- /Gy- /Qpar- /arch:SSE2 /fp:precise /fp:except- /Zc:wchar_t /Zc:forScope /GR- /openmp- /Fo"WIN32\DEBUG\\" /Fd"WIN32\DEBUG\VC120.PDB" /Gd /TP /analyze- D:\C4\GAMECODE\MGMATERIALS.CPP
^D:\C4\GAMECODE\MGPOWERS.CPP
/c /I..\..\..\EngineCode /I..\..\..\PluginCode /Zi /nologo /W3 /WX- /Od /Ob1 /Oi /Ot /Oy- /D C4DEBUG /D C4WINDOWS /GF /Gm- /MT /GS- /Gy- /Qpar- /arch:SSE2 /fp:precise /fp:except- /Zc:wchar_t /Zc:forScope /GR- /openmp- /Fo"WIN32\DEBUG\\" /Fd"WIN32\DEBUG\VC120.PDB" /Gd /TP /analyze- D:\C4\GAMECODE\MGPOWERS.CPP
^D:\C4\GAMECODE\MGPROPERTIES.CPP
/c /I..\..\..\EngineCode /I..\..\..\PluginCode /Zi /nologo /W3 /WX- /Od /Ob1 /Oi /Ot /Oy- /D C4DEBUG /D C4WINDOWS /GF /Gm- /MT /GS- /Gy- /Qpar- /arch:SSE2 /fp:precise /fp:except- /Zc:wchar_t /Zc:forScope /GR- /openmp- /Fo"WIN32\DEBUG\\" /Fd"WIN32\DEBUG\VC120.PDB" /Gd /TP /analyze- D:\C4\GAMECODE\MGPROPERTIES.CPP
^D:\C4\GAMECODE\MGRIGIDBODY.CPP
/c /I..\..\..\EngineCode /I..\..\..\PluginCode /Zi /nologo /W3 /WX- /Od /Ob1 /Oi /Ot /Oy- /D C4DEBUG /D C4WINDOWS /GF /Gm- /MT /GS- /Gy- /Qpar- /arch:SSE2 /fp:precise /fp:except- /Zc:wchar_t /Zc:forScope /GR- /openmp- /Fo"WIN32\DEBUG\\" /Fd"WIN32\DEBUG\VC120.PDB" /Gd /TP /analyze- D:\C4\GAMECODE\MGRIGIDBODY.CPP
^D:\C4\GAMECODE\MGSCRIPTS.CPP
/c /I..\..\..\EngineCode /I..\..\..\PluginCode /Zi /nologo /W3 /WX- /Od /Ob1 /Oi /Ot /Oy- /D C4DEBUG /D C4WINDOWS /GF /Gm- /MT /GS- /Gy- /Qpar- /arch:SSE2 /fp:precise /fp:except- /Zc:wchar_t /Zc:forScope /GR- /openmp- /Fo"WIN32\DEBUG\\" /Fd"WIN32\DEBUG\VC120.PDB" /Gd /TP /analyze- D:\C4\GAMECODE\MGSCRIPTS.CPP
^D:\C4\GAMECODE\MGFIGHTER.CPP
/c /I..\..\..\EngineCode /I..\..\..\PluginCode /Zi /nologo /W3 /WX- /Od /Ob1 /Oi /Ot /Oy- /D C4DEBUG /D C4WINDOWS /GF /Gm- /MT /GS- /Gy- /Qpar- /arch:SSE2 /fp:precise /fp:except- /Zc:wchar_t /Zc:forScope /GR- /openmp- /Fo"WIN32\DEBUG\\" /Fd"WIN32\DEBUG\VC120.PDB" /Gd /TP /analyze- D:\C4\GAMECODE\MGFIGHTER.CPP
^D:\C4\GAMECODE\MGSHOTGUN.CPP
/c /I..\..\..\EngineCode /I..\..\..\PluginCode /Zi /nologo /W3 /WX- /Od /Ob1 /Oi /Ot /Oy- /D C4DEBUG /D C4WINDOWS /GF /Gm- /MT /GS- /Gy- /Qpar- /arch:SSE2 /fp:precise /fp:except- /Zc:wchar_t /Zc:forScope /GR- /openmp- /Fo"WIN32\DEBUG\\" /Fd"WIN32\DEBUG\VC120.PDB" /Gd /TP /analyze- D:\C4\GAMECODE\MGSHOTGUN.CPP
^D:\C4\GAMECODE\MGSKELETON.CPP
/c /I..\..\..\EngineCode /I..\..\..\PluginCode /Zi /nologo /W3 /WX- /Od /Ob1 /Oi /Ot /Oy- /D C4DEBUG /D C4WINDOWS /GF /Gm- /MT /GS- /Gy- /Qpar- /arch:SSE2 /fp:precise /fp:except- /Zc:wchar_t /Zc:forScope /GR- /openmp- /Fo"WIN32\DEBUG\\" /Fd"WIN32\DEBUG\VC120.PDB" /Gd /TP /analyze- D:\C4\GAMECODE\MGSKELETON.CPP
^D:\C4\GAMECODE\MGBLACKCAT.CPP
/c /I..\..\..\EngineCode /I..\..\..\PluginCode /Zi /nologo /W3 /WX- /Od /Ob1 /Oi /Ot /Oy- /D C4DEBUG /D C4WINDOWS /GF /Gm- /MT /GS- /Gy- /Qpar- /arch:SSE2 /fp:precise /fp:except- /Zc:wchar_t /Zc:forScope /GR- /openmp- /Fo"WIN32\DEBUG\\" /Fd"WIN32\DEBUG\VC120.PDB" /Gd /TP /analyze- D:\C4\GAMECODE\MGBLACKCAT.CPP
^D:\C4\GAMECODE\MGFIREBALL.CPP
/c /I..\..\..\EngineCode /I..\..\..\PluginCode /Zi /nologo /W3 /WX- /Od /Ob1 /Oi /Ot /Oy- /D C4DEBUG /D C4WINDOWS /GF /Gm- /MT /GS- /Gy- /Qpar- /arch:SSE2 /fp:precise /fp:except- /Zc:wchar_t /Zc:forScope /GR- /openmp- /Fo"WIN32\DEBUG\\" /Fd"WIN32\DEBUG\VC120.PDB" /Gd /TP /analyze- D:\C4\GAMECODE\MGFIREBALL.CPP
^D:\C4\GAMECODE\MGGOBLIN.CPP
/c /I..\..\..\EngineCode /I..\..\..\PluginCode /Zi /nologo /W3 /WX- /Od /Ob1 /Oi /Ot /Oy- /D C4DEBUG /D C4WINDOWS /GF /Gm- /MT /GS- /Gy- /Qpar- /arch:SSE2 /fp:precise /fp:except- /Zc:wchar_t /Zc:forScope /GR- /openmp- /Fo"WIN32\DEBUG\\" /Fd"WIN32\DEBUG\VC120.PDB" /Gd /TP /analyze- D:\C4\GAMECODE\MGGOBLIN.CPP
^D:\C4\GAMECODE\MGMONSTER.CPP
/c /I..\..\..\EngineCode /I..\..\..\PluginCode /Zi /nologo /W3 /WX- /Od /Ob1 /Oi /Ot /Oy- /D C4DEBUG /D C4WINDOWS /GF /Gm- /MT /GS- /Gy- /Qpar- /arch:SSE2 /fp:precise /fp:except- /Zc:wchar_t /Zc:forScope /GR- /openmp- /Fo"WIN32\DEBUG\\" /Fd"WIN32\DEBUG\VC120.PDB" /Gd /TP /analyze- D:\C4\GAMECODE\MGMONSTER.CPP
^D:\C4\GAMECODE\MGPUMPKINHEAD.CPP
/c /I..\..\..\EngineCode /I..\..\..\PluginCode /Zi /nologo /W3 /WX- /Od /Ob1 /Oi /Ot /Oy- /D C4DEBUG /D C4WINDOWS /GF /Gm- /MT /GS- /Gy- /Qpar- /arch:SSE2 /fp:precise /fp:except- /Zc:wchar_t /Zc:forScope /GR- /openmp- /Fo"WIN32\DEBUG\\" /Fd"WIN32\DEBUG\VC120.PDB" /Gd /TP /analyze- D:\C4\GAMECODE\MGPUMPKINHEAD.CPP
^D:\C4\GAMECODE\MGSPIDER.CPP
/c /I..\..\..\EngineCode /I..\..\..\PluginCode /Zi /nologo /W3 /WX- /Od /Ob1 /Oi /Ot /Oy- /D C4DEBUG /D C4WINDOWS /GF /Gm- /MT /GS- /Gy- /Qpar- /arch:SSE2 /fp:precise /fp:except- /Zc:wchar_t /Zc:forScope /GR- /openmp- /Fo"WIN32\DEBUG\\" /Fd"WIN32\DEBUG\VC120.PDB" /Gd /TP /analyze- D:\C4\GAMECODE\MGSPIDER.CPP
^D:\C4\GAMECODE\MGSPIKESHOOTER.CPP
/c /I..\..\..\EngineCode /I..\..\..\PluginCode /Zi /nologo /W3 /WX- /Od /Ob1 /Oi /Ot /Oy- /D C4DEBUG /D C4WINDOWS /GF /Gm- /MT /GS- /Gy- /Qpar- /arch:SSE2 /fp:precise /fp:except- /Zc:wchar_t /Zc:forScope /GR- /openmp- /Fo"WIN32\DEBUG\\" /Fd"WIN32\DEBUG\VC120.PDB" /Gd /TP /analyze- D:\C4\GAMECODE\MGSPIKESHOOTER.CPP
^D:\C4\GAMECODE\MGTARBALL.CPP
/c /I..\..\..\EngineCode /I..\..\..\PluginCode /Zi /nologo /W3 /WX- /Od /Ob1 /Oi /Ot /Oy- /D C4DEBUG /D C4WINDOWS /GF /Gm- /MT /GS- /Gy- /Qpar- /arch:SSE2 /fp:precise /fp:except- /Zc:wchar_t /Zc:forScope /GR- /openmp- /Fo"WIN32\DEBUG\\" /Fd"WIN32\DEBUG\VC120.PDB" /Gd /TP /analyze- D:\C4\GAMECODE\MGTARBALL.CPP
^D:\C4\GAMECODE\MGGOLEM.CPP
/c /I..\..\..\EngineCode /I..\..\..\PluginCode /Zi /nologo /W3 /WX- /Od /Ob1 /Oi /Ot /Oy- /D C4DEBUG /D C4WINDOWS /GF /Gm- /MT /GS- /Gy- /Qpar- /arch:SSE2 /fp:precise /fp:except- /Zc:wchar_t /Zc:forScope /GR- /openmp- /Fo"WIN32\DEBUG\\" /Fd"WIN32\DEBUG\VC120.PDB" /Gd /TP /analyze- D:\C4\GAMECODE\MGGOLEM.CPP
^D:\C4\GAMECODE\MGTREASURE.CPP
/c /I..\..\..\EngineCode /I..\..\..\PluginCode /Zi /nologo /W3 /WX- /Od /Ob1 /Oi /Ot /Oy- /D C4DEBUG /D C4WINDOWS /GF /Gm- /MT /GS- /Gy- /Qpar- /arch:SSE2 /fp:precise /fp:except- /Zc:wchar_t /Zc:forScope /GR- /openmp- /Fo"WIN32\DEBUG\\" /Fd"WIN32\DEBUG\VC120.PDB" /Gd /TP /analyze- D:\C4\GAMECODE\MGTREASURE.CPP
^D:\C4\GAMECODE\MGVENOM.CPP
/c /I..\..\..\EngineCode /I..\..\..\PluginCode /Zi /nologo /W3 /WX- /Od /Ob1 /Oi /Ot /Oy- /D C4DEBUG /D C4WINDOWS /GF /Gm- /MT /GS- /Gy- /Qpar- /arch:SSE2 /fp:precise /fp:except- /Zc:wchar_t /Zc:forScope /GR- /openmp- /Fo"WIN32\DEBUG\\" /Fd"WIN32\DEBUG\VC120.PDB" /Gd /TP /analyze- D:\C4\GAMECODE\MGVENOM.CPP
^D:\C4\GAMECODE\MGWITCH.CPP
/c /I..\..\..\EngineCode /I..\..\..\PluginCode /Zi /nologo /W3 /WX- /Od /Ob1 /Oi /Ot /Oy- /D C4DEBUG /D C4WINDOWS /GF /Gm- /MT /GS- /Gy- /Qpar- /arch:SSE2 /fp:precise /fp:except- /Zc:wchar_t /Zc:forScope /GR- /openmp- /Fo"WIN32\DEBUG\\" /Fd"WIN32\DEBUG\VC120.PDB" /Gd /TP /analyze- D:\C4\GAMECODE\MGWITCH.CPP
^D:\C4\GAMECODE\MGZOMBIE.CPP
/c /I..\..\..\EngineCode /I..\..\..\PluginCode /Zi /nologo /W3 /WX- /Od /Ob1 /Oi /Ot /Oy- /D C4DEBUG /D C4WINDOWS /GF /Gm- /MT /GS- /Gy- /Qpar- /arch:SSE2 /fp:precise /fp:except- /Zc:wchar_t /Zc:forScope /GR- /openmp- /Fo"WIN32\DEBUG\\" /Fd"WIN32\DEBUG\VC120.PDB" /Gd /TP /analyze- D:\C4\GAMECODE\MGZOMBIE.CPP
^D:\C4\GAMECODE\MGGRENADELAUNCHER.CPP
/c /I..\..\..\EngineCode /I..\..\..\PluginCode /Zi /nologo /W3 /WX- /Od /Ob1 /Oi /Ot /Oy- /D C4DEBUG /D C4WINDOWS /GF /Gm- /MT /GS- /Gy- /Qpar- /arch:SSE2 /fp:precise /fp:except- /Zc:wchar_t /Zc:forScope /GR- /openmp- /Fo"WIN32\DEBUG\\" /Fd"WIN32\DEBUG\VC120.PDB" /Gd /TP /analyze- D:\C4\GAMECODE\MGGRENADELAUNCHER.CPP
^D:\C4\GAMECODE\MGPISTOL.CPP
/c /I..\..\..\EngineCode /I..\..\..\PluginCode /Zi /nologo /W3 /WX- /Od /Ob1 /Oi /Ot /Oy- /D C4DEBUG /D C4WINDOWS /GF /Gm- /MT /GS- /Gy- /Qpar- /arch:SSE2 /fp:precise /fp:except- /Zc:wchar_t /Zc:forScope /GR- /openmp- /Fo"WIN32\DEBUG\\" /Fd"WIN32\DEBUG\VC120.PDB" /Gd /TP /analyze- D:\C4\GAMECODE\MGPISTOL.CPP
^D:\C4\GAMECODE\MGPLASMAGUN.CPP
/c /I..\..\..\EngineCode /I..\..\..\PluginCode /Zi /nologo /W3 /WX- /Od /Ob1 /Oi /Ot /Oy- /D C4DEBUG /D C4WINDOWS /GF /Gm- /MT /GS- /Gy- /Qpar- /arch:SSE2 /fp:precise /fp:except- /Zc:wchar_t /Zc:forScope /GR- /openmp- /Fo"WIN32\DEBUG\\" /Fd"WIN32\DEBUG\VC120.PDB" /Gd /TP /analyze- D:\C4\GAMECODE\MGPLASMAGUN.CPP
^D:\C4\GAMECODE\MGPROTONCANNON.CPP
/c /I..\..\..\EngineCode /I..\..\..\PluginCode /Zi /nologo /W3 /WX- /Od /Ob1 /Oi /Ot /Oy- /D C4DEBUG /D C4WINDOWS /GF /Gm- /MT /GS- /Gy- /Qpar- /arch:SSE2 /fp:precise /fp:except- /Zc:wchar_t /Zc:forScope /GR- /openmp- /Fo"WIN32\DEBUG\\" /Fd"WIN32\DEBUG\VC120.PDB" /Gd /TP /analyze- D:\C4\GAMECODE\MGPROTONCANNON.CPP
^D:\C4\GAMECODE\MGQUANTUMCHARGER.CPP
/c /I..\..\..\EngineCode /I..\..\..\PluginCode /Zi /nologo /W3 /WX- /Od /Ob1 /Oi /Ot /Oy- /D C4DEBUG /D C4WINDOWS /GF /Gm- /MT /GS- /Gy- /Qpar- /arch:SSE2 /fp:precise /fp:except- /Zc:wchar_t /Zc:forScope /GR- /openmp- /Fo"WIN32\DEBUG\\" /Fd"WIN32\DEBUG\VC120.PDB" /Gd /TP /analyze- D:\C4\GAMECODE\MGQUANTUMCHARGER.CPP
^D:\C4\GAMECODE\MGROCKETLAUNCHER.CPP
/c /I..\..\..\EngineCode /I..\..\..\PluginCode /Zi /nologo /W3 /WX- /Od /Ob1 /Oi /Ot /Oy- /D C4DEBUG /D C4WINDOWS /GF /Gm- /MT /GS- /Gy- /Qpar- /arch:SSE2 /fp:precise /fp:except- /Zc:wchar_t /Zc:forScope /GR- /openmp- /Fo"WIN32\DEBUG\\" /Fd"WIN32\DEBUG\VC120.PDB" /Gd /TP /analyze- D:\C4\GAMECODE\MGROCKETLAUNCHER.CPP
^D:\C4\GAMECODE\MGWEAPONS.CPP
/c /I..\..\..\EngineCode /I..\..\..\PluginCode /Zi /nologo /W3 /WX- /Od /Ob1 /Oi /Ot /Oy- /D C4DEBUG /D C4WINDOWS /GF /Gm- /MT /GS- /Gy- /Qpar- /arch:SSE2 /fp:precise /fp:except- /Zc:wchar_t /Zc:forScope /GR- /openmp- /Fo"WIN32\DEBUG\\" /Fd"WIN32\DEBUG\VC120.PDB" /Gd /TP /analyze- D:\C4\GAMECODE\MGWEAPONS.CPP
^D:\C4\GAMECODE\MGEFFECTS.CPP
/c /I..\..\..\EngineCode /I..\..\..\PluginCode /Zi /nologo /W3 /WX- /Od /Ob1 /Oi /Ot /Oy- /D C4DEBUG /D C4WINDOWS /GF /Gm- /MT /GS- /Gy- /Qpar- /arch:SSE2 /fp:precise /fp:except- /Zc:wchar_t /Zc:forScope /GR- /openmp- /Fo"WIN32\DEBUG\\" /Fd"WIN32\DEBUG\VC120.PDB" /Gd /TP /analyze- D:\C4\GAMECODE\MGEFFECTS.CPP
^D:\C4\GAMECODE\MGWEATHER.CPP
/c /I..\..\..\EngineCode /I..\..\..\PluginCode /Zi /nologo /W3 /WX- /Od /Ob1 /Oi /Ot /Oy- /D C4DEBUG /D C4WINDOWS /GF /Gm- /MT /GS- /Gy- /Qpar- /arch:SSE2 /fp:precise /fp:except- /Zc:wchar_t /Zc:forScope /GR- /openmp- /Fo"WIN32\DEBUG\\" /Fd"WIN32\DEBUG\VC120.PDB" /Gd /TP /analyze- D:\C4\GAMECODE\MGWEATHER.CPP
^D:\C4\GAMECODE\MGCROSSHAIRS.CPP
/c /I..\..\..\EngineCode /I..\..\..\PluginCode /Zi /nologo /W3 /WX- /Od /Ob1 /Oi /Ot /Oy- /D C4DEBUG /D C4WINDOWS /GF /Gm- /MT /GS- /Gy- /Qpar- /arch:SSE2 /fp:precise /fp:except- /Zc:wchar_t /Zc:forScope /GR- /openmp- /Fo"WIN32\DEBUG\\" /Fd"WIN32\DEBUG\VC120.PDB" /Gd /TP /analyze- D:\C4\GAMECODE\MGCROSSHAIRS.CPP
^D:\C4\GAMECODE\MGINTERFACE.CPP
/c /I..\..\..\EngineCode /I..\..\..\PluginCode /Zi /nologo /W3 /WX- /Od /Ob1 /Oi /Ot /Oy- /D C4DEBUG /D C4WINDOWS /GF /Gm- /MT /GS- /Gy- /Qpar- /arch:SSE2 /fp:precise /fp:except- /Zc:wchar_t /Zc:forScope /GR- /openmp- /Fo"WIN32\DEBUG\\" /Fd"WIN32\DEBUG\VC120.PDB" /Gd /TP /analyze- D:\C4\GAMECODE\MGINTERFACE.CPP
^D:\C4\GAMECODE\MGCONFIGURATION.CPP
/c /I..\..\..\EngineCode /I..\..\..\PluginCode /Zi /nologo /W3 /WX- /Od /Ob1 /Oi /Ot /Oy- /D C4DEBUG /D C4WINDOWS /GF /Gm- /MT /GS- /Gy- /Qpar- /arch:SSE2 /fp:precise /fp:except- /Zc:wchar_t /Zc:forScope /GR- /openmp- /Fo"WIN32\DEBUG\\" /Fd"WIN32\DEBUG\VC120.PDB" /Gd /TP /analyze- D:\C4\GAMECODE\MGCONFIGURATION.CPP
^D:\C4\GAMECODE\MGGAME.CPP
/c /I..\..\..\EngineCode /I..\..\..\PluginCode /Zi /nologo /W3 /WX- /Od /Ob1 /Oi /Ot /Oy- /D C4DEBUG /D C4WINDOWS /GF /Gm- /MT /GS- /Gy- /Qpar- /arch:SSE2 /fp:precise /fp:except- /Zc:wchar_t /Zc:forScope /GR- /openmp- /Fo"WIN32\DEBUG\\" /Fd"WIN32\DEBUG\VC120.PDB" /Gd /TP /analyze- D:\C4\GAMECODE\MGGAME.CPP
^D:\C4\GAMECODE\MGMULTIPLAYER.CPP
/c /I..\..\..\EngineCode /I..\..\..\PluginCode /Zi /nologo /W3 /WX- /Od /Ob1 /Oi /Ot /Oy- /D C4DEBUG /D C4WINDOWS /GF /Gm- /MT /GS- /Gy- /Qpar- /arch:SSE2 /fp:precise /fp:except- /Zc:wchar_t /Zc:forScope /GR- /openmp- /Fo"WIN32\DEBUG\\" /Fd"WIN32\DEBUG\VC120.PDB" /Gd /TP /analyze- D:\C4\GAMECODE\MGMULTIPLAYER.CPP
^D:\C4\GAMECODE\MGSOLDIER.CPP
/c /I..\..\..\EngineCode /I..\..\..\PluginCode /Zi /nologo /W3 /WX- /Od /Ob1 /Oi /Ot /Oy- /D C4DEBUG /D C4WINDOWS /GF /Gm- /MT /GS- /Gy- /Qpar- /arch:SSE2 /fp:precise /fp:except- /Zc:wchar_t /Zc:forScope /GR- /openmp- /Fo"WIN32\DEBUG\\" /Fd"WIN32\DEBUG\VC120.PDB" /Gd /TP /analyze- D:\C4\GAMECODE\MGSOLDIER.CPP
