^D:\C4\GAMECODE\MGAXE.CPP|D:\C4\GAMECODE\MGBASE.CPP|D:\C4\GAMECODE\MGBAT.CPP|D:\C4\GAMECODE\MGBEERCANNON.CPP|D:\C4\GAMECODE\MGBLACKCAT.CPP|D:\C4\GAMECODE\MGCAMERAS.CPP|D:\C4\GAMECODE\MGCATFLINGER.CPP|D:\C4\GAMECODE\MGCHARACTER.CPP|D:\C4\GAMECODE\MGCHICKEN.CPP|D:\C4\GAMECODE\MGCHICKENBLASTER.CPP|D:\C4\GAMECODE\MGCONFIGURATION.CPP|D:\C4\GAMECODE\MGCONTROLLERS.CPP|D:\C4\GAMECODE\MGCROSSBOW.CPP|D:\C4\GAMECODE\MGCROSSHAIRS.CPP|D:\C4\GAMECODE\MGEFFECTS.CPP|D:\C4\GAMECODE\MGFIGHTER.CPP|D:\C4\GAMECODE\MGFIREBALL.CPP|D:\C4\GAMECODE\MGFISH.CPP|D:\C4\GAMECODE\MGGAME.CPP|D:\C4\GAMECODE\MGGOBLIN.CPP|D:\C4\GAMECODE\MGGOLEM.CPP|D:\C4\GAMECODE\MGGRENADELAUNCHER.CPP|D:\C4\GAMECODE\MGGRIMREAPER.CPP|D:\C4\GAMECODE\MGGUSGRAVES.CPP|D:\C4\GAMECODE\MGHAUNTEDARM.CPP|D:\C4\GAMECODE\MGHORNETGUN.CPP|D:\C4\GAMECODE\MGINPUT.CPP|D:\C4\GAMECODE\MGINTERFACE.CPP|D:\C4\GAMECODE\MGMAGICBROOM.CPP|D:\C4\GAMECODE\MGMATERIALS.CPP|D:\C4\GAMECODE\MGMONSTER.CPP|D:\C4\GAMECODE\MGMULTIPLAYER.CPP|D:\C4\GAMECODE\MGPISTOL.CPP|D:\C4\GAMECODE\MGPLASMAGUN.CPP|D:\C4\GAMECODE\MGPOWERS.CPP|D:\C4\GAMECODE\MGPROPERTIES.CPP|D:\C4\GAMECODE\MGPROTONCANNON.CPP|D:\C4\GAMECODE\MGPUMPKINHEAD.CPP|D:\C4\GAMECODE\MGQUANTUMCHARGER.CPP|D:\C4\GAMECODE\MGRIGIDBODY.CPP|D:\C4\GAMECODE\MGROCKETLAUNCHER.CPP|D:\C4\GAMECODE\MGSCRIPTS.CPP|D:\C4\GAMECODE\MGSHOTGUN.CPP|D:\C4\GAMECODE\MGSKELETON.CPP|D:\C4\GAMECODE\MGSOLDIER.CPP|D:\C4\GAMECODE\MGSPIDER.CPP|D:\C4\GAMECODE\MGSPIKESHOOTER.CPP|D:\C4\GAMECODE\MGTARBALL.CPP|D:\C4\GAMECODE\MGTREASURE.CPP|D:\C4\GAMECODE\MGVENOM.CPP|D:\C4\GAMECODE\MGWEAPONS.CPP|D:\C4\GAMECODE\MGWEATHER.CPP|D:\C4\GAMECODE\MGWITCH.CPP|D:\C4\GAMECODE\MGZOMBIE.CPP
D:\C4\VISUALSTUDIO2013\C4\GAME\WIN32\DEBUG\MGCHARACTER.OBJ
D:\C4\VISUALSTUDIO2013\C4\GAME\WIN32\DEBUG\MGCHICKENBLASTER.OBJ
D:\C4\VISUALSTUDIO2013\C4\GAME\WIN32\DEBUG\MGHORNETGUN.OBJ
D:\C4\VISUALSTUDIO2013\C4\GAME\WIN32\DEBUG\MGSCRIPTS.OBJ
D:\C4\VISUALSTUDIO2013\C4\GAME\WIN32\DEBUG\MGMONSTER.OBJ
D:\C4\VISUALSTUDIO2013\C4\GAME\WIN32\DEBUG\MGVENOM.OBJ
D:\C4\VISUALSTUDIO2013\C4\GAME\WIN32\DEBUG\MGQUANTUMCHARGER.OBJ
D:\C4\VISUALSTUDIO2013\C4\GAME\WIN32\DEBUG\MGBEERCANNON.OBJ
D:\C4\VISUALSTUDIO2013\C4\GAME\WIN32\DEBUG\MGGAME.OBJ
D:\C4\VISUALSTUDIO2013\C4\GAME\WIN32\DEBUG\MGPOWERS.OBJ
D:\C4\VISUALSTUDIO2013\C4\GAME\WIN32\DEBUG\MGSOLDIER.OBJ
D:\C4\VISUALSTUDIO2013\C4\GAME\WIN32\DEBUG\MGTARBALL.OBJ
D:\C4\VISUALSTUDIO2013\C4\GAME\WIN32\DEBUG\MGPLASMAGUN.OBJ
D:\C4\VISUALSTUDIO2013\C4\GAME\WIN32\DEBUG\MGCROSSHAIRS.OBJ
D:\C4\VISUALSTUDIO2013\C4\GAME\WIN32\DEBUG\MGBASE.OBJ
D:\C4\VISUALSTUDIO2013\C4\GAME\WIN32\DEBUG\MGCONTROLLERS.OBJ
D:\C4\VISUALSTUDIO2013\C4\GAME\WIN32\DEBUG\MGINPUT.OBJ
D:\C4\VISUALSTUDIO2013\C4\GAME\WIN32\DEBUG\MGFIGHTER.OBJ
D:\C4\VISUALSTUDIO2013\C4\GAME\WIN32\DEBUG\MGSPIDER.OBJ
D:\C4\VISUALSTUDIO2013\C4\GAME\WIN32\DEBUG\MGGRENADELAUNCHER.OBJ
D:\C4\VISUALSTUDIO2013\C4\GAME\WIN32\DEBUG\MGEFFECTS.OBJ
D:\C4\VISUALSTUDIO2013\C4\GAME\WIN32\DEBUG\MGCAMERAS.OBJ
D:\C4\VISUALSTUDIO2013\C4\GAME\WIN32\DEBUG\MGGRIMREAPER.OBJ
D:\C4\VISUALSTUDIO2013\C4\GAME\WIN32\DEBUG\MGMULTIPLAYER.OBJ
D:\C4\VISUALSTUDIO2013\C4\GAME\WIN32\DEBUG\MGBLACKCAT.OBJ
D:\C4\VISUALSTUDIO2013\C4\GAME\WIN32\DEBUG\MGGOLEM.OBJ
D:\C4\VISUALSTUDIO2013\C4\GAME\WIN32\DEBUG\MGPROTONCANNON.OBJ
D:\C4\VISUALSTUDIO2013\C4\GAME\WIN32\DEBUG\MGINTERFACE.OBJ
D:\C4\VISUALSTUDIO2013\C4\GAME\WIN32\DEBUG\MGAXE.OBJ
D:\C4\VISUALSTUDIO2013\C4\GAME\WIN32\DEBUG\MGFISH.OBJ
D:\C4\VISUALSTUDIO2013\C4\GAME\WIN32\DEBUG\MGMATERIALS.OBJ
D:\C4\VISUALSTUDIO2013\C4\GAME\WIN32\DEBUG\MGSKELETON.OBJ
D:\C4\VISUALSTUDIO2013\C4\GAME\WIN32\DEBUG\MGSPIKESHOOTER.OBJ
D:\C4\VISUALSTUDIO2013\C4\GAME\WIN32\DEBUG\MGPISTOL.OBJ
D:\C4\VISUALSTUDIO2013\C4\GAME\WIN32\DEBUG\MGWEATHER.OBJ
D:\C4\VISUALSTUDIO2013\C4\GAME\WIN32\DEBUG\MGCHICKEN.OBJ
D:\C4\VISUALSTUDIO2013\C4\GAME\WIN32\DEBUG\MGGUSGRAVES.OBJ
D:\C4\VISUALSTUDIO2013\C4\GAME\WIN32\DEBUG\MGPROPERTIES.OBJ
D:\C4\VISUALSTUDIO2013\C4\GAME\WIN32\DEBUG\MGFIREBALL.OBJ
D:\C4\VISUALSTUDIO2013\C4\GAME\WIN32\DEBUG\MGTREASURE.OBJ
D:\C4\VISUALSTUDIO2013\C4\GAME\WIN32\DEBUG\MGROCKETLAUNCHER.OBJ
D:\C4\VISUALSTUDIO2013\C4\GAME\WIN32\DEBUG\MGBAT.OBJ
D:\C4\VISUALSTUDIO2013\C4\GAME\WIN32\DEBUG\MGCROSSBOW.OBJ
D:\C4\VISUALSTUDIO2013\C4\GAME\WIN32\DEBUG\MGMAGICBROOM.OBJ
D:\C4\VISUALSTUDIO2013\C4\GAME\WIN32\DEBUG\MGSHOTGUN.OBJ
D:\C4\VISUALSTUDIO2013\C4\GAME\WIN32\DEBUG\MGPUMPKINHEAD.OBJ
D:\C4\VISUALSTUDIO2013\C4\GAME\WIN32\DEBUG\MGZOMBIE.OBJ
D:\C4\VISUALSTUDIO2013\C4\GAME\WIN32\DEBUG\MGWEAPONS.OBJ
D:\C4\VISUALSTUDIO2013\C4\GAME\WIN32\DEBUG\MGCATFLINGER.OBJ
D:\C4\VISUALSTUDIO2013\C4\GAME\WIN32\DEBUG\MGHAUNTEDARM.OBJ
D:\C4\VISUALSTUDIO2013\C4\GAME\WIN32\DEBUG\MGRIGIDBODY.OBJ
D:\C4\VISUALSTUDIO2013\C4\GAME\WIN32\DEBUG\MGGOBLIN.OBJ
D:\C4\VISUALSTUDIO2013\C4\GAME\WIN32\DEBUG\MGWITCH.OBJ
D:\C4\VISUALSTUDIO2013\C4\GAME\WIN32\DEBUG\MGCONFIGURATION.OBJ
^D:\C4\GAMECODE\MGAXE.CPP
D:\C4\VISUALSTUDIO2013\C4\GAME\WIN32\DEBUG\VC120.PDB
^D:\C4\GAMECODE\MGBASE.CPP
D:\C4\VISUALSTUDIO2013\C4\GAME\WIN32\DEBUG\VC120.PDB
^D:\C4\GAMECODE\MGBAT.CPP
D:\C4\VISUALSTUDIO2013\C4\GAME\WIN32\DEBUG\VC120.PDB
^D:\C4\GAMECODE\MGBEERCANNON.CPP
D:\C4\VISUALSTUDIO2013\C4\GAME\WIN32\DEBUG\VC120.PDB
^D:\C4\GAMECODE\MGCAMERAS.CPP
D:\C4\VISUALSTUDIO2013\C4\GAME\WIN32\DEBUG\VC120.PDB
^D:\C4\GAMECODE\MGCATFLINGER.CPP
D:\C4\VISUALSTUDIO2013\C4\GAME\WIN32\DEBUG\VC120.PDB
^D:\C4\GAMECODE\MGCHARACTER.CPP
D:\C4\VISUALSTUDIO2013\C4\GAME\WIN32\DEBUG\VC120.PDB
^D:\C4\GAMECODE\MGCHICKEN.CPP
D:\C4\VISUALSTUDIO2013\C4\GAME\WIN32\DEBUG\VC120.PDB
^D:\C4\GAMECODE\MGCHICKENBLASTER.CPP
D:\C4\VISUALSTUDIO2013\C4\GAME\WIN32\DEBUG\VC120.PDB
^D:\C4\GAMECODE\MGCONTROLLERS.CPP
D:\C4\VISUALSTUDIO2013\C4\GAME\WIN32\DEBUG\VC120.PDB
^D:\C4\GAMECODE\MGCROSSBOW.CPP
D:\C4\VISUALSTUDIO2013\C4\GAME\WIN32\DEBUG\VC120.PDB
^D:\C4\GAMECODE\MGFISH.CPP
D:\C4\VISUALSTUDIO2013\C4\GAME\WIN32\DEBUG\VC120.PDB
^D:\C4\GAMECODE\MGGRIMREAPER.CPP
D:\C4\VISUALSTUDIO2013\C4\GAME\WIN32\DEBUG\VC120.PDB
^D:\C4\GAMECODE\MGGUSGRAVES.CPP
D:\C4\VISUALSTUDIO2013\C4\GAME\WIN32\DEBUG\VC120.PDB
^D:\C4\GAMECODE\MGHAUNTEDARM.CPP
D:\C4\VISUALSTUDIO2013\C4\GAME\WIN32\DEBUG\VC120.PDB
^D:\C4\GAMECODE\MGHORNETGUN.CPP
D:\C4\VISUALSTUDIO2013\C4\GAME\WIN32\DEBUG\VC120.PDB
^D:\C4\GAMECODE\MGINPUT.CPP
D:\C4\VISUALSTUDIO2013\C4\GAME\WIN32\DEBUG\VC120.PDB
^D:\C4\GAMECODE\MGMAGICBROOM.CPP
D:\C4\VISUALSTUDIO2013\C4\GAME\WIN32\DEBUG\VC120.PDB
^D:\C4\GAMECODE\MGMATERIALS.CPP
D:\C4\VISUALSTUDIO2013\C4\GAME\WIN32\DEBUG\VC120.PDB
^D:\C4\GAMECODE\MGPOWERS.CPP
D:\C4\VISUALSTUDIO2013\C4\GAME\WIN32\DEBUG\VC120.PDB
^D:\C4\GAMECODE\MGPROPERTIES.CPP
D:\C4\VISUALSTUDIO2013\C4\GAME\WIN32\DEBUG\VC120.PDB
^D:\C4\GAMECODE\MGRIGIDBODY.CPP
D:\C4\VISUALSTUDIO2013\C4\GAME\WIN32\DEBUG\VC120.PDB
^D:\C4\GAMECODE\MGSCRIPTS.CPP
D:\C4\VISUALSTUDIO2013\C4\GAME\WIN32\DEBUG\VC120.PDB
^D:\C4\GAMECODE\MGFIGHTER.CPP
D:\C4\VISUALSTUDIO2013\C4\GAME\WIN32\DEBUG\VC120.PDB
^D:\C4\GAMECODE\MGSHOTGUN.CPP
D:\C4\VISUALSTUDIO2013\C4\GAME\WIN32\DEBUG\VC120.PDB
^D:\C4\GAMECODE\MGSKELETON.CPP
D:\C4\VISUALSTUDIO2013\C4\GAME\WIN32\DEBUG\VC120.PDB
^D:\C4\GAMECODE\MGBLACKCAT.CPP
D:\C4\VISUALSTUDIO2013\C4\GAME\WIN32\DEBUG\VC120.PDB
^D:\C4\GAMECODE\MGFIREBALL.CPP
D:\C4\VISUALSTUDIO2013\C4\GAME\WIN32\DEBUG\VC120.PDB
^D:\C4\GAMECODE\MGGOBLIN.CPP
D:\C4\VISUALSTUDIO2013\C4\GAME\WIN32\DEBUG\VC120.PDB
^D:\C4\GAMECODE\MGMONSTER.CPP
D:\C4\VISUALSTUDIO2013\C4\GAME\WIN32\DEBUG\VC120.PDB
^D:\C4\GAMECODE\MGPUMPKINHEAD.CPP
D:\C4\VISUALSTUDIO2013\C4\GAME\WIN32\DEBUG\VC120.PDB
^D:\C4\GAMECODE\MGSPIDER.CPP
D:\C4\VISUALSTUDIO2013\C4\GAME\WIN32\DEBUG\VC120.PDB
^D:\C4\GAMECODE\MGSPIKESHOOTER.CPP
D:\C4\VISUALSTUDIO2013\C4\GAME\WIN32\DEBUG\VC120.PDB
^D:\C4\GAMECODE\MGTARBALL.CPP
D:\C4\VISUALSTUDIO2013\C4\GAME\WIN32\DEBUG\VC120.PDB
^D:\C4\GAMECODE\MGGOLEM.CPP
D:\C4\VISUALSTUDIO2013\C4\GAME\WIN32\DEBUG\VC120.PDB
^D:\C4\GAMECODE\MGTREASURE.CPP
D:\C4\VISUALSTUDIO2013\C4\GAME\WIN32\DEBUG\VC120.PDB
^D:\C4\GAMECODE\MGVENOM.CPP
D:\C4\VISUALSTUDIO2013\C4\GAME\WIN32\DEBUG\VC120.PDB
^D:\C4\GAMECODE\MGWITCH.CPP
D:\C4\VISUALSTUDIO2013\C4\GAME\WIN32\DEBUG\VC120.PDB
^D:\C4\GAMECODE\MGZOMBIE.CPP
D:\C4\VISUALSTUDIO2013\C4\GAME\WIN32\DEBUG\VC120.PDB
^D:\C4\GAMECODE\MGGRENADELAUNCHER.CPP
D:\C4\VISUALSTUDIO2013\C4\GAME\WIN32\DEBUG\VC120.PDB
^D:\C4\GAMECODE\MGPISTOL.CPP
D:\C4\VISUALSTUDIO2013\C4\GAME\WIN32\DEBUG\VC120.PDB
^D:\C4\GAMECODE\MGPLASMAGUN.CPP
D:\C4\VISUALSTUDIO2013\C4\GAME\WIN32\DEBUG\VC120.PDB
^D:\C4\GAMECODE\MGPROTONCANNON.CPP
D:\C4\VISUALSTUDIO2013\C4\GAME\WIN32\DEBUG\VC120.PDB
^D:\C4\GAMECODE\MGQUANTUMCHARGER.CPP
D:\C4\VISUALSTUDIO2013\C4\GAME\WIN32\DEBUG\VC120.PDB
^D:\C4\GAMECODE\MGROCKETLAUNCHER.CPP
D:\C4\VISUALSTUDIO2013\C4\GAME\WIN32\DEBUG\VC120.PDB
^D:\C4\GAMECODE\MGWEAPONS.CPP
D:\C4\VISUALSTUDIO2013\C4\GAME\WIN32\DEBUG\VC120.PDB
^D:\C4\GAMECODE\MGEFFECTS.CPP
D:\C4\VISUALSTUDIO2013\C4\GAME\WIN32\DEBUG\VC120.PDB
^D:\C4\GAMECODE\MGWEATHER.CPP
D:\C4\VISUALSTUDIO2013\C4\GAME\WIN32\DEBUG\VC120.PDB
^D:\C4\GAMECODE\MGCROSSHAIRS.CPP
D:\C4\VISUALSTUDIO2013\C4\GAME\WIN32\DEBUG\VC120.PDB
^D:\C4\GAMECODE\MGINTERFACE.CPP
D:\C4\VISUALSTUDIO2013\C4\GAME\WIN32\DEBUG\VC120.PDB
^D:\C4\GAMECODE\MGCONFIGURATION.CPP|D:\C4\GAMECODE\MGGAME.CPP|D:\C4\GAMECODE\MGMULTIPLAYER.CPP|D:\C4\GAMECODE\MGSOLDIER.CPP
D:\C4\VISUALSTUDIO2013\C4\GAME\WIN32\DEBUG\MGSOLDIER.OBJ
D:\C4\VISUALSTUDIO2013\C4\GAME\WIN32\DEBUG\MGGAME.OBJ
D:\C4\VISUALSTUDIO2013\C4\GAME\WIN32\DEBUG\MGCONFIGURATION.OBJ
D:\C4\VISUALSTUDIO2013\C4\GAME\WIN32\DEBUG\MGMULTIPLAYER.OBJ
^D:\C4\GAMECODE\MGCONFIGURATION.CPP
D:\C4\VISUALSTUDIO2013\C4\GAME\WIN32\DEBUG\VC120.PDB
^D:\C4\GAMECODE\MGGAME.CPP
D:\C4\VISUALSTUDIO2013\C4\GAME\WIN32\DEBUG\VC120.PDB
^D:\C4\GAMECODE\MGMULTIPLAYER.CPP
D:\C4\VISUALSTUDIO2013\C4\GAME\WIN32\DEBUG\VC120.PDB
^D:\C4\GAMECODE\MGSOLDIER.CPP
D:\C4\VISUALSTUDIO2013\C4\GAME\WIN32\DEBUG\VC120.PDB
